<?xml version="1.0" encoding="utf-8"?>
<!-- Generator: Adobe Illustrator 15.0.0, SVG Export Plug-In  -->
<!DOCTYPE svg PUBLIC "-//W3C//DTD SVG 1.1//EN" "http://www.w3.org/Graphics/SVG/1.1/DTD/svg11.dtd" [
	<!ENTITY ns_flows "http://ns.adobe.com/Flows/1.0/">
]>
<svg version="1.1"
	 xmlns="http://www.w3.org/2000/svg" xmlns:xlink="http://www.w3.org/1999/xlink" xmlns:a="http://ns.adobe.com/AdobeSVGViewerExtensions/3.0/"
	 x="0px" y="0px" width="32px" height="32px" viewBox="0 0 32 32" overflow="visible" enable-background="new 0 0 32 32"
	 xml:space="preserve">
<defs>
</defs>
<rect display="none" fill="#E6E7E8" width="32" height="32"/>
<rect x="4" y="4" display="none" fill="#E6E7E8" width="24" height="24"/>
<path id="picture-box-icon_2_" display="none" fill="#FFFFFF" d="M19.574,20.86l-1.551,1.446h-3.975l-1.556-1.446h-8.51H3.979
	l0.877,5.212l22.248-0.001l0.935-5.211h-0.004H19.574z M25.854,9.115H6.164L5.932,7.851h20.156L25.854,9.115z M24.502,6.925H7.572
	L7.34,5.928h17.396L24.502,6.925z M5.385,19.525l-0.788-9.417h22.775l-0.809,9.417h-1.996l0.547-7.673H6.799l0.603,7.673H5.385z"/>
<path display="none" fill="#FFFFFF" d="M23.801,27.83H8.456c-0.761,0-1.27-0.446-1.27-1.11V6.664c0-0.663,0.509-1.109,1.27-1.109
	h15.345c0.761,0,1.271,0.446,1.271,1.109v20.055C25.072,27.384,24.562,27.83,23.801,27.83z M8.736,26.474h14.785V6.911L8.736,6.909
	V26.474z"/>
<path display="none" fill="#FFFFFF" d="M23.801,28.089H8.456c-0.901,0-1.531-0.563-1.531-1.37V6.664c0-0.807,0.63-1.371,1.531-1.371
	h15.345c0.901,0,1.532,0.564,1.532,1.371v20.055C25.333,27.526,24.702,28.089,23.801,28.089z M8.456,5.815
	c-0.613,0-1.01,0.333-1.01,0.849v20.055c0,0.516,0.396,0.849,1.01,0.849h15.345c0.614,0,1.01-0.333,1.01-0.849V6.664
	c0-0.515-0.396-0.849-1.01-0.849H8.456z M23.782,26.734H8.476V6.649L23.782,6.65V26.734z M8.997,26.213h14.264V7.171L8.997,7.17
	V26.213z"/>
<path display="none" fill="#FFFFFF" d="M9.993,8.782c-0.266,0-0.482-0.188-0.482-0.422V8.261c0-0.234,0.217-0.423,0.482-0.423h0.434
	c0.268,0,0.483,0.189,0.483,0.423v0.098c0,0.234-0.216,0.422-0.483,0.422H9.993z"/>
<path display="none" fill="#FFFFFF" d="M10.427,8.02c0.153,0,0.276,0.107,0.276,0.242v0.098c0,0.133-0.123,0.242-0.276,0.242H9.993
	c-0.152,0-0.276-0.109-0.276-0.242V8.261c0-0.134,0.124-0.242,0.276-0.242H10.427 M10.427,7.657H9.993
	c-0.381,0-0.69,0.271-0.69,0.604v0.098c0,0.334,0.31,0.603,0.69,0.603h0.434c0.382,0,0.69-0.269,0.69-0.603V8.261
	C11.117,7.928,10.809,7.657,10.427,7.657L10.427,7.657z"/>
<path display="none" fill="#FFFFFF" d="M12.915,8.782c-0.266,0-0.483-0.188-0.483-0.422V8.261c0-0.234,0.218-0.423,0.483-0.423
	h0.435c0.266,0,0.482,0.189,0.482,0.423v0.098c0,0.234-0.217,0.422-0.482,0.422H12.915z"/>
<path display="none" fill="#FFFFFF" d="M13.35,8.02c0.152,0,0.276,0.107,0.276,0.242v0.098c0,0.133-0.124,0.242-0.276,0.242h-0.435
	c-0.152,0-0.276-0.109-0.276-0.242V8.261c0-0.134,0.124-0.242,0.276-0.242H13.35 M13.35,7.657h-0.435
	c-0.381,0-0.689,0.271-0.689,0.604v0.098c0,0.334,0.309,0.603,0.689,0.603h0.435c0.381,0,0.69-0.269,0.69-0.603V8.261
	C14.04,7.928,13.73,7.657,13.35,7.657L13.35,7.657z"/>
<path display="none" fill="#FFFFFF" d="M15.837,8.782c-0.267,0-0.481-0.188-0.481-0.422V8.261c0-0.234,0.215-0.423,0.481-0.423
	h0.436c0.266,0,0.482,0.189,0.482,0.423v0.098c0,0.234-0.217,0.422-0.482,0.422H15.837z"/>
<path display="none" fill="#FFFFFF" d="M16.272,8.02c0.151,0,0.276,0.107,0.276,0.242v0.098c0,0.133-0.125,0.242-0.276,0.242h-0.436
	c-0.152,0-0.276-0.109-0.276-0.242V8.261c0-0.134,0.124-0.242,0.276-0.242H16.272 M16.272,7.657h-0.436
	c-0.38,0-0.688,0.271-0.688,0.604v0.098c0,0.334,0.309,0.603,0.688,0.603h0.436c0.381,0,0.688-0.269,0.688-0.603V8.261
	C16.961,7.928,16.653,7.657,16.272,7.657L16.272,7.657z"/>
<path display="none" fill="#FFFFFF" d="M18.894,8.782c-0.266,0-0.482-0.188-0.482-0.422V8.261c0-0.234,0.217-0.423,0.482-0.423
	h0.435c0.267,0,0.483,0.189,0.483,0.423v0.098c0,0.234-0.217,0.422-0.483,0.422H18.894z"/>
<path display="none" fill="#FFFFFF" d="M19.328,8.02c0.153,0,0.276,0.107,0.276,0.242v0.098c0,0.133-0.123,0.242-0.276,0.242h-0.435
	c-0.151,0-0.275-0.109-0.275-0.242V8.261c0-0.134,0.124-0.242,0.275-0.242H19.328 M19.328,7.657h-0.435
	c-0.381,0-0.688,0.271-0.688,0.604v0.098c0,0.334,0.308,0.603,0.688,0.603h0.435c0.382,0,0.689-0.269,0.689-0.603V8.261
	C20.018,7.928,19.71,7.657,19.328,7.657L19.328,7.657z"/>
<path display="none" fill="#FFFFFF" d="M21.816,8.782c-0.267,0-0.483-0.188-0.483-0.422V8.261c0-0.234,0.217-0.423,0.483-0.423
	h0.435c0.267,0,0.482,0.189,0.482,0.423v0.098c0,0.234-0.216,0.422-0.482,0.422H21.816z"/>
<path display="none" fill="#FFFFFF" d="M22.251,8.02c0.151,0,0.276,0.107,0.276,0.242v0.098c0,0.133-0.125,0.242-0.276,0.242h-0.435
	c-0.153,0-0.276-0.109-0.276-0.242V8.261c0-0.134,0.123-0.242,0.276-0.242H22.251 M22.251,7.657h-0.435
	c-0.383,0-0.69,0.271-0.69,0.604v0.098c0,0.334,0.308,0.603,0.69,0.603h0.435c0.38,0,0.689-0.269,0.689-0.603V8.261
	C22.94,7.928,22.631,7.657,22.251,7.657L22.251,7.657z"/>
<path display="none" fill="#FFFFFF" d="M16.713,7.945l-0.567-0.215c0.173-0.352,0.285-0.731,0.34-1.163
	c0.133-1.004-0.142-1.703-0.5-1.848c-0.105,0.118-0.292,0.491-0.45,1.088l-0.604-0.122c0.38-1.429,0.797-1.495,0.934-1.518
	c0.047-0.007,0.109-0.013,0.183-0.001c0.808,0.166,1.228,1.155,1.056,2.461C17.04,7.114,16.914,7.545,16.713,7.945z"/>
<path display="none" fill="#FFFFFF" d="M19.701,7.945l-0.569-0.215c0.175-0.352,0.286-0.731,0.343-1.163
	c0.131-1.004-0.145-1.703-0.502-1.848c-0.106,0.118-0.291,0.491-0.448,1.088l-0.605-0.122c0.379-1.43,0.795-1.495,0.933-1.518
	c0.046-0.005,0.109-0.013,0.184-0.001c0.805,0.166,1.226,1.155,1.056,2.461C20.027,7.114,19.9,7.544,19.701,7.945z"/>
<path display="none" fill="#FFFFFF" d="M22.623,7.945l-0.569-0.215c0.173-0.351,0.286-0.73,0.343-1.163
	c0.132-1.004-0.144-1.702-0.502-1.848c-0.104,0.118-0.292,0.491-0.45,1.088l-0.603-0.122c0.377-1.428,0.794-1.495,0.931-1.518
	c0.07-0.01,0.128-0.01,0.186-0.001c0.806,0.166,1.225,1.153,1.055,2.461C22.949,7.115,22.821,7.546,22.623,7.945z"/>
<path display="none" fill="#FFFFFF" d="M13.792,7.945l-0.569-0.215c0.175-0.352,0.286-0.731,0.343-1.163
	c0.132-1.004-0.145-1.703-0.502-1.848c-0.105,0.118-0.292,0.491-0.449,1.088L12.01,5.686c0.378-1.429,0.795-1.495,0.933-1.518
	c0.067-0.011,0.13-0.01,0.188,0.001c0.801,0.164,1.222,1.151,1.052,2.459C14.119,7.114,13.99,7.544,13.792,7.945z"/>
<path display="none" fill="#FFFFFF" d="M10.876,7.945l-0.568-0.215c0.176-0.354,0.286-0.732,0.343-1.163
	c0.132-1.004-0.144-1.703-0.501-1.848c-0.107,0.118-0.292,0.491-0.45,1.088L9.096,5.686C9.472,4.256,9.89,4.19,10.027,4.167
	c0.068-0.01,0.13-0.01,0.188,0.001c0.802,0.164,1.222,1.153,1.051,2.459C11.204,7.111,11.076,7.542,10.876,7.945z"/>
</svg>
