#,Subject,Assignee,Status,Updated
8288,Windows build tries to create file in developers folder ,hans,New,05/19/2017 06:26 pm
8347,Typo on website,Anonymous,New,07/02/2017 09:14 pm
8330,get ssh public keys from launchpad using ssh-import-id,Anonymous,New,06/19/2017 08:28 am
8146,fedora python-pymtp package needs update,abeluck,In Progress,01/18/2017 07:54 am
8064,OSX cant find Android,"",New,12/04/2016 04:20 am
7940,Windows: Should use %purplehome% rather than %appdata% for the pidgin home folder.,"",New,09/23/2016 08:10 pm
7855,Typo on website,Anonymous,New,08/22/2016 06:24 pm
7625,Support for Psi and Psi+,"",New,07/25/2016 10:19 am
7624,keysync-gui failure,"",New,06/08/2016 01:27 am
6716,Add --input-folder option to CLI,"",New,02/27/2016 11:23 pm
6624,Windows build tries to create file in developers folder ,hans,New,02/09/2016 07:14 pm
6599,swedish police ,hans,New,02/04/2016 02:06 pm
6176,Pidgin: can't handle unicode in account names,"",New,10/30/2015 01:52 am
5138,Pidgin: can't handle unicode in account names,"",New,05/10/2015 06:42 am
4907,Windows: Should use %purplehome% rather than %appdata% for the pidgin home folder.,"",New,04/01/2015 06:40 pm
4566,OSX KeySync locks up with no obvious activity when saving file,"",New,02/17/2015 06:22 pm
4565,OSX cant find Android,"",New,02/17/2015 06:23 pm
4210,Windows - otr_keystore.ofcaes not found,"",New,12/04/2014 04:47 pm
4196,Pidgin: can't handle unicode in account names,"",New,12/02/2014 01:21 pm
3573,Windows - otr_keystore.ofcaes not found,"",New,07/08/2014 11:19 pm
3429,KeyError: 'protocol' when syncing from jitsi,"",New,07/10/2014 05:01 pm
3205,Add support for AGL's xmpp client key format (github.com/agl/xmpp-client),Anonymous,New,04/07/2014 07:38 pm
2895,Support Miranda IM,"",New,01/21/2014 10:34 pm
2875,simplify Adium's internal libotr file format,"",New,01/16/2014 03:35 pm
2478,keysync pypi pip install fails on Arch linux with python 3.3,abeluck,In Progress,11/14/2013 12:28 pm
2232,get python-pyjavaproperties package into fedora,abeluck,New,10/26/2013 11:26 am
2231,get python-potr package into fedora,abeluck,New,10/26/2013 11:26 am
2230,get python-pgpdump package into fedora,abeluck,New,10/26/2013 11:25 am
2229,get keysync package into fedora,abeluck,New,10/26/2013 11:25 am
2228,fedora pyton-qrcode packages needs update,abeluck,In Progress,10/26/2013 11:28 am
2227,fedora python-pymtp package needs update,abeluck,In Progress,10/26/2013 11:27 am
2226,get all packages into fedora,abeluck,In Progress,10/26/2013 11:28 am
2113,get ssh public keys from launchpad using ssh-import-id,"",New,10/17/2013 03:39 pm
8231,Mac OS X app exits with error code: 255,hans,New,04/07/2017 07:14 am
7760,Can't handle with S2K extension,"",New,07/19/2016 04:09 pm
3023,parse -i -o lists of apps separated by commas,"",New,03/02/2014 01:47 am
2940,merge open pull requests,"",New,02/07/2014 05:01 pm
2916,Mac OS X Keysync installed via pip can't find 'otrapps' module,"",New,02/11/2014 10:38 am
2911,keysync 0.2-1 fails with Jitsi input,"",New,01/28/2014 04:33 pm
2894,Windows Keysync looks in paths from developer's machine,abeluck,New,04/13/2014 10:43 am
2205,keysync 0.2.0 fails to convert keys on ubuntu,"",New,11/07/2014 06:00 pm
2185,parsing these Windows Jitsi files causes keysync to crash,"",New,10/26/2013 02:00 am
2058,Mac OS X app exits with error code: 255,hans,New,10/26/2013 01:59 am
1873,debianize python-biplist,hans,In Progress,11/13/2013 07:21 pm
8297,"how best to handle multiple public remote keys, fingerprints, verified statuses","",New,05/27/2017 09:07 am
5512,delete existing otr_keystore.ofcaes off of device before sync,"",New,07/18/2015 01:00 am
2943,investigate python 'cryptography' lib,"",New,02/09/2014 08:00 am
2942,investigate python 'cryptography' lib,"",New,02/08/2014 07:48 pm
2344,automatically generate man page,"",New,11/05/2013 06:39 pm
2276,"GnuPG always has secring.gpg and pubring.gpg, breaking key detection method",abeluck,In Progress,11/25/2013 01:30 pm
2275,"KeySync shows ""Sync Failed"" if no keys found","",New,10/30/2013 08:01 pm
2224,crash and debug logging,hans,New,10/26/2013 10:44 am
2218,research libimobiledevice for bootstrap sync to iOS devices,"",New,10/25/2013 08:43 pm
2183,how should GnuPG identities be mapped to XMPP/OTR?,"",New,10/22/2013 03:06 pm
2180,implement Add + button in keysync-gui,"",New,10/22/2013 02:29 pm
2170,figure out translation format for strings and setup transifex project,"",New,10/21/2013 07:58 pm
2150,does pyassuan give us anything easier for GnuPG?,"",New,10/19/2013 07:35 pm
2139,don't do anything when keydict is empty,"",New,10/18/2013 01:16 pm
2130,ChatSecure.write() should write unencrypted properties file into memory,"",New,03/06/2016 04:57 pm
2129,syncing GPG info to GnuPrivacyGuard for Android,"",New,10/18/2013 04:53 am
2126,automatically detect and copy otr_keystore.ofcaes to Android device on Windows,"",New,10/18/2013 12:55 am
2119,specify URI scheme for keysync password exchange QRCode,"",New,10/17/2013 08:30 pm
2114,should use unicode throughout the code instead of str,"",New,10/17/2013 06:08 pm
2079,delete existing otr_keystore.ofcaes off of device before sync,"",New,10/18/2013 12:43 pm
2059,backup any files before copying a new conf file in place,"",New,10/10/2013 07:44 pm
2050,jitsi icon shows up when there are no accounts,"",New,10/18/2013 10:44 am
2049,"""Did not match"" output","",New,10/10/2013 08:56 pm
2045,win32: folder chooser doesn't show hidden folders,"",New,10/09/2013 03:20 pm
1968,implement GUI for multi-app two-way sync,"",New,09/28/2013 12:55 am
1965,remember any profiles that users have added,"",New,09/27/2013 09:39 pm
1964,protocol name tables for proper naming for each app,"",New,09/27/2013 08:44 pm
1963,implement private key conflict handling,"",New,11/01/2013 06:58 pm
1892,check that apps are not running before running sync,"",New,09/27/2013 08:39 pm
1888,add code checking/analysis tools to jenkins build,"",New,09/27/2013 08:33 pm
1877,"if we have the private key, mark it as verified fingerprint","",New,10/17/2013 04:36 pm
1871,convert keydict format to support multiple keys/fingerprints per account name,"",New,09/27/2013 08:39 pm
1868,"how best to handle multiple public remote keys, fingerprints, verified statuses","",New,10/18/2013 07:27 pm
1867,otr.private_key format is sometimes improperly padded with leading zeros,"",New,09/27/2013 08:36 pm
8202,implement full trust sync with ChatSecure over OTR data ,"",New,02/26/2017 01:21 pm
7472,implement full trust sync with ChatSecure over OTR data ,"",New,05/23/2016 06:36 am
7245,implement full trust sync with ChatSecure over OTR data ,"",New,04/28/2016 12:58 am
7244,implement full trust sync with ChatSecure over OTR data ,"",New,04/28/2016 12:56 am
7215,implement full trust sync with ChatSecure over OTR data ,"",New,04/25/2016 09:42 am
2179,use python-potr's convertkey.py to convert old libotr files,"",New,10/22/2013 02:25 pm
2128,package python-biplist for Fedora,abeluck,New,10/26/2013 11:09 am
2125,support KDE KIO mounts,abeluck,New,10/18/2013 12:49 am
2057,Update Logo,"",New,10/17/2013 06:34 pm
1884,get Windows build running on debeater build server,abeluck,New,10/09/2013 09:46 pm
1876,implement full trust sync with ChatSecure over OTR data ,"",New,09/27/2013 08:34 pm
1875,convert otr_keystore.ofcaes format to AES-256-GCM,"",New,12/02/2013 03:11 pm
1869,using python-biplist to process Adium's plist files,"",New,11/14/2013 01:17 pm
