-----BEGIN PGP SIGNATURE-----
Version: GnuPG v1.4.11 (GNU/Linux)

iQIcBAABAgAGBQJRVgehAAoJEKgBGD5ps3qp0m0P/AxxCECBGGufEH8DeABhdRvG
/c8+oHP3/jmXYBHO+5Z1i5hKck/S2Ru2PYRcaIC1clTZc+oBH2/8F5B8sXubSKj+
FLodecwNGGpjJXwDmlyrbfvsExfg5zbGndctq09hEPAx1KWSEjjUECxf+4k9XGEb
CpreCB7+gECfnfp/JSaeaL80fzSZ2aJfRKg45wfajuHE/y22XjyAxkgjv9k6kTav
qDuqbYhwXiR7bXZnhG9AMtW8Hh0G0EUnIazQeE7r5rqgxuE0S5Up0wqTwgOwDWmR
RXoj/3wyTQhax9W+zMZdcatqD/aVZAy+N6ndHc3REpo9MPnA6LVTH66u+mHMR7jN
aWQMv5/DeETgWHrGdMoJlpLWbt+/H3CjXlfAD1D/MjQI+bkKnP6M20pb/ajwS2J8
PeGjy8GCpDSbskb8dB3Wi4jTt2Z8vcMydjPsjuBQw9arbePjF2RBHyt6LiXzwJsf
czu+hX06dS75ZlBKRUrOaMT6wSUKgd/u3IyqfUvhR+hTSsbjlHbV432YTNHi/hla
+Va2xk5w3o5BQacb7UtLL9y0IksMT744wZvuPbom+y9NxyCp9VYxy9N0miVemJMR
ny7avw4s3e4dractutKsUvO9MD6dNZkNw1Dq8vfgkcsG72fGjVYZC4igBYDCA5eK
y2w3p28nwZbD1c3HiEir
=Au5r
-----END PGP SIGNATURE-----
