<?xml version="1.0" encoding="utf-8"?>
<!-- Generator: Adobe Illustrator 15.0.2, SVG Export Plug-In . SVG Version: 6.00 Build 0)  -->
<!DOCTYPE svg PUBLIC "-//W3C//DTD SVG 1.1//EN" "http://www.w3.org/Graphics/SVG/1.1/DTD/svg11.dtd">
<svg version="1.1" xmlns="http://www.w3.org/2000/svg" xmlns:xlink="http://www.w3.org/1999/xlink" x="0px" y="0px" width="14400px"
	 height="14400px" viewBox="0 0 14400 14400" enable-background="new 0 0 14400 14400" xml:space="preserve">
<g id="Layer_3" display="none">
	<g display="inline">
		
			<line fill="none" stroke="#FFFFFF" stroke-width="4.9582" stroke-miterlimit="10" stroke-dasharray="24.7912,24.7912" x1="7519.5" y1="6659.5" x2="7519.5" y2="7739.5"/>
		
			<line fill="none" stroke="#FFFFFF" stroke-width="14.8747" stroke-miterlimit="10" x1="6879.499" y1="6661.578" x2="6879.499" y2="7738.115"/>
		<g>
			<g>
				
					<line fill="none" stroke="#FFFFFF" stroke-width="4.9582" stroke-miterlimit="10" x1="8159.5" y1="7379.5" x2="8147.104" y2="7379.5"/>
				
					<line fill="none" stroke="#FFFFFF" stroke-width="4.9582" stroke-miterlimit="10" stroke-dasharray="24.6131,24.6131" x1="8122.491" y1="7379.5" x2="6264.203" y2="7379.5"/>
				
					<line fill="none" stroke="#FFFFFF" stroke-width="4.9582" stroke-miterlimit="10" x1="6251.896" y1="7379.5" x2="6239.5" y2="7379.5"/>
			</g>
		</g>
		
			<line fill="none" stroke="#FFFFFF" stroke-width="4.9582" stroke-miterlimit="10" stroke-dasharray="24.7912,24.7912" x1="8159.5" y1="7019.504" x2="6239.5" y2="7019.504"/>
	</g>
	
		<rect x="6239.503" y="6659.503" display="inline" fill="none" stroke="#FFFFFF" stroke-width="4.9582" stroke-miterlimit="10" width="1919.997" height="1079.997"/>
	<g display="inline">
		<defs>
			<rect id="SVGID_1_" x="6239.503" y="6659.503" width="1919.997" height="1079.997"/>
		</defs>
		<clipPath id="SVGID_2_">
			<use xlink:href="#SVGID_1_"  overflow="visible"/>
		</clipPath>
		<g clip-path="url(#SVGID_2_)">
			<path fill="none" stroke="#FFFFFF" stroke-width="4.9582" stroke-miterlimit="10" d="M6239.5,7039.323
				c0,0,116.518-152.189,166.101-181.939s200.809-94.207,309.89-126.435c109.081-32.229,228.079-34.708,245.433-22.312
				c17.354,12.396,29.749,22.312,29.749,22.312"/>
			<path fill="none" stroke="#FFFFFF" stroke-width="4.9582" stroke-miterlimit="10" d="M6536.995,6904.564
				c0,0,443.762-176.094,498.303-190.97c54.541-14.874,195.849,67.014,250.391,95.485c54.54,28.471,90.446,84.61,90.446,84.61"/>
			<path fill="none" stroke="#FFFFFF" stroke-width="4.9582" stroke-miterlimit="10" d="M6636.159,7744.908
				c47.104-14.874,183.455-183.455,287.578-262.786c104.123-79.332,173.538-114.039,356.993-167.021
				c183.454-52.981,205.766-90.809,198.329-123.753c-7.438-32.95-37.188-41.428-128.914-31.512
				c-91.728,9.917-158.664,4.958-247.912,37.081c-89.249,32.122-198.33,58.782-198.33,58.782s126.436-100.821,213.204-157.826
				c86.77-57.005,148.749-37.202,237.996-47.118c89.248-9.917,138.831-27.271,151.227-74.374s-2.479-49.583-86.77-71.817
				c-84.291-22.23-233.037-54.618-285.098-34.039c-52.062,20.574-327.244,148.979-327.244,148.979"/>
			<path fill="none" stroke="#FFFFFF" stroke-width="4.9582" stroke-miterlimit="10" d="M7431.956,7170.992
				c35.646,4.79,43.499,33.497,24.792,48.343s-75.614,37.188-92.968,16.114c0,0-3.719-40.905-8.677-58.259
				C7355.104,7177.19,7390.865,7165.472,7431.956,7170.992z"/>
			<path fill="none" stroke="#FFFFFF" stroke-width="4.9582" stroke-miterlimit="10" d="M7392.291,6909.522
				c0,0,19.745,39.589,18.549,60.662c-1.195,21.073,82.475,19.833,86.193,0.62c0,0,8.861-28.51-3.719-34.708
				C7479.881,6929.477,7409.645,6912.002,7392.291,6909.522z"/>
			
				<line fill="none" stroke="#FFFFFF" stroke-width="4.9582" stroke-miterlimit="10" x1="6405.601" y1="6659.5" x2="6536.995" y2="6795.614"/>
			
				<line fill="none" stroke="#FFFFFF" stroke-width="4.9582" stroke-miterlimit="10" x1="6324.379" y1="6659.5" x2="6478.765" y2="6820.788"/>
			
				<line fill="none" stroke="#FFFFFF" stroke-width="4.9582" stroke-miterlimit="10" x1="6615.087" y1="6659.503" x2="6699.689" y2="6735.762"/>
			<path fill="none" stroke="#FFFFFF" stroke-width="4.9582" stroke-miterlimit="10" d="M7668.713,7089.182
				c17.494,18.007-45.864,35.947-100.405,52.478c-54.54,16.525-47.929,11.562-82.636-13.229
				c-34.708-24.791-11.57-39.666-11.57-39.666l123.956-41.312c19.833-6.614,32.849,7.021,32.849,7.021L7668.713,7089.182z"/>
			<path fill="none" stroke="#FFFFFF" stroke-width="4.9582" stroke-miterlimit="10" d="M7521.27,7434.524
				c17.495,18.004-45.312,32.878-99.852,49.408c-54.541,16.532-47.928,11.568-82.638-13.224
				c-34.707-24.791-11.569-39.665-11.569-39.665l123.957-41.318c19.832-6.613,32.848,7.021,32.848,7.021L7521.27,7434.524z"/>
			<path fill="none" stroke="#FFFFFF" stroke-width="4.9582" stroke-miterlimit="10" d="M7609.473,7520.872
				c17.494,18.008-45.312,32.883-99.853,49.414c-54.54,16.526-47.929,11.562-82.636-13.229
				c-34.708-24.79-11.571-39.666-11.571-39.666l123.957-41.312c19.833-6.614,32.847,7.021,32.847,7.021L7609.473,7520.872z"/>
			<path fill="none" stroke="#FFFFFF" stroke-width="4.9582" stroke-miterlimit="10" d="M7824.438,7459.025
				c17.493,18.013-45.313,32.888-99.853,49.412c-54.542,16.526-47.929,11.568-82.638-13.223
				c-34.708-24.792-11.569-39.666-11.569-39.666l123.956-41.316c19.832-6.61,32.848,7.026,32.848,7.026L7824.438,7459.025z"/>
			<path fill="none" stroke="#FFFFFF" stroke-width="4.9582" stroke-miterlimit="10" d="M7711.771,7612.973
				c17.495,18.003-45.311,32.877-99.852,49.408c-54.541,16.53-47.93,11.568-82.636-13.224
				c-34.708-24.792-11.571-39.666-11.571-39.666l123.956-41.316c19.833-6.614,32.849,7.021,32.849,7.021L7711.771,7612.973z"/>
			<path fill="none" stroke="#FFFFFF" stroke-width="4.9582" stroke-miterlimit="10" d="M7837.557,6990.626
				c17.493,18.003-45.312,32.878-99.853,49.409c-54.54,16.531-47.929,11.568-82.636-13.224
				c-34.709-24.791-11.571-39.666-11.571-39.666l123.956-41.317c19.834-6.614,32.848,7.021,32.848,7.021L7837.557,6990.626z"/>
			<path fill="none" stroke="#FFFFFF" stroke-width="4.9582" stroke-miterlimit="10" d="M7745.446,6914.976
				c17.495,18.007-45.312,32.882-99.853,49.407c-54.54,16.531-47.929,11.573-82.636-13.218
				c-34.708-24.792-11.571-39.667-11.571-39.667l123.957-41.321c19.833-6.609,32.849,7.026,32.849,7.026L7745.446,6914.976z"/>
			<path fill="none" stroke="#FFFFFF" stroke-width="4.9582" stroke-miterlimit="10" d="M7647.791,6840.982
				c17.495,18.007-45.311,32.884-99.852,49.41c-54.541,16.526-47.928,11.567-82.636-13.224
				c-34.708-24.792-11.569-39.666-11.569-39.666l123.955-41.317c19.832-6.611,32.848,7.023,32.848,7.023L7647.791,6840.982z"/>
			<path fill="none" stroke="#FFFFFF" stroke-width="4.9582" stroke-miterlimit="10" d="M7556.719,6765.916
				c17.494,18.008-45.312,32.882-99.853,49.411c-54.541,16.528-47.93,11.568-82.636-13.223
				c-34.709-24.792-11.571-39.667-11.571-39.667l123.957-41.316c19.832-6.612,32.848,7.023,32.848,7.023L7556.719,6765.916z"/>
			<path fill="none" stroke="#FFFFFF" stroke-width="4.9582" stroke-miterlimit="10" d="M7985.567,6855.376
				c18.683,16.776-42.959,35.901-96.242,56.122c-53.282,20.216-47.026,14.817-83.347-7.543s-14.252-38.785-14.252-38.785
				l120.84-49.691c19.337-7.954,33.253,4.762,33.253,4.762L7985.567,6855.376z"/>
			<path fill="none" stroke="#FFFFFF" stroke-width="4.9582" stroke-miterlimit="10" d="M8184.783,7000.35
				c18.683,16.773-67.29,60.971-120.652,80.983c-46.277,17.354-125.418-69.284-156.184-95.731
				c-37.168-31.948-14.272-44.871-14.272-44.871l120.84-49.694c19.337-7.95,33.254,4.765,33.254,4.765L8184.783,7000.35z"/>
			<path fill="none" stroke="#FFFFFF" stroke-width="4.9582" stroke-miterlimit="10" d="M7898.546,6778.519
				c18.683,16.773-42.957,35.904-96.242,56.12c-53.282,20.218-47.025,14.816-83.347-7.544
				c-36.318-22.36-14.252-38.782-14.252-38.782l120.841-49.691c19.336-7.954,33.253,4.762,33.253,4.762L7898.546,6778.519z"/>
			<path fill="none" stroke="#FFFFFF" stroke-width="4.9582" stroke-miterlimit="10" d="M7805.469,6707.775
				c17.506,15.717-40.256,33.645-90.187,52.587c-49.931,18.947-44.066,13.885-78.101-7.066
				c-34.035-20.955-13.357-36.342-13.357-36.342l113.238-46.565c18.119-7.452,31.158,4.461,31.158,4.461L7805.469,6707.775z"/>
			<path fill="none" stroke="#FFFFFF" stroke-width="4.9582" stroke-miterlimit="10" d="M8264.948,6760.577
				c19.332,16.02-41.507,37.572-93.948,59.879c-52.441,22.308-46.405,16.664-83.58-4.244
				c-37.176-20.908-15.772-38.189-15.772-38.189l118.779-54.429c19.007-8.711,33.414,3.445,33.414,3.445L8264.948,6760.577z"/>
			<path fill="none" stroke="#FFFFFF" stroke-width="4.9582" stroke-miterlimit="10" d="M8174.957,6687.219
				c19.331,16.022-41.508,37.573-93.949,59.878c-52.44,22.311-46.402,16.667-83.58-4.241
				c-37.175-20.908-15.771-38.189-15.771-38.189l118.78-54.43c19.005-8.71,33.416,3.445,33.416,3.445L8174.957,6687.219z"/>
			<path fill="none" stroke="#FFFFFF" stroke-width="4.9582" stroke-miterlimit="10" d="M8079.154,6620.209
				c18.113,15.013-38.894,35.208-88.035,56.109c-49.142,20.906-43.484,15.616-78.32-3.973
				c-34.839-19.593-14.783-35.785-14.783-35.785l111.31-51.006c17.808-8.164,31.311,3.228,31.311,3.228L8079.154,6620.209z"/>
			<path fill="none" stroke="#FFFFFF" stroke-width="4.9582" stroke-miterlimit="10" d="M7709.936,6644.09
				c17.506,15.717-40.254,33.645-90.187,52.586c-49.931,18.948-44.066,13.885-78.101-7.066
				c-34.035-20.954-13.357-36.342-13.357-36.342l113.238-46.566c18.119-7.451,31.159,4.462,31.159,4.462L7709.936,6644.09z"/>
			<path fill="none" stroke="#FFFFFF" stroke-width="4.9582" stroke-miterlimit="10" d="M7472.488,6693.907
				c16.854,15.647-41.586,30.67-92.241,46.946c-50.659,16.284-44.594,11.663-77.746-9.58
				c-33.156-21.247-11.873-35.192-11.873-35.192l115.031-40.358c18.41-6.459,30.95,5.392,30.95,5.392L7472.488,6693.907z"/>
			<path fill="none" stroke="#FFFFFF" stroke-width="4.9582" stroke-miterlimit="10" d="M7736.888,7110.254l-166.318,59.257
				c0,0-17.572,5.2,0,20.075c17.571,14.875,39.884,39.665,39.884,39.665s15.07,18.183,64.143,6.615
				c49.07-11.573,311.857-112.394,311.857-112.394s21.487-9.917-13.221-39.666c-34.709-29.749-66.111-54.541-66.111-54.541
				s-14.049-13.218-53.715,3.312c-39.665,16.525-119.823,49.583-119.823,49.583S7713.748,7097.036,7736.888,7110.254z"/>
			<path fill="none" stroke="#FFFFFF" stroke-width="4.9582" stroke-miterlimit="10" d="M7265.354,7166.693
				c-13.853-13.151-22.928-21.731-22.928-21.731s-33.983-25.973-16.528-30.989l105.654-30.36c0,0,27.27-21.702,60.738,10.527
				c33.469,32.229,184.693,149.928,184.693,149.928s27.271,14.933,9.916,24.85c-17.354,9.916-114.039,35.516-114.039,35.516
				s-48.343,17.785-71.894-7.006l-18.741-16.162"/>
			<path fill="none" stroke="#FFFFFF" stroke-width="4.9582" stroke-miterlimit="10" d="M7410.84,7045.642
				c0,0,11.025,37.342,55.737,23.706c44.711-13.635,109.168-37.187,109.168-37.187s8.677-7.902-6.899-26.031
				c-13.202-15.368-50.12-58.569-50.12-58.569h-8.565"/>
			<path fill="none" stroke="#FFFFFF" stroke-width="4.9582" stroke-miterlimit="10" d="M7183.485,7066.279
				c0,0,17.913,30.311,31.549,32.186c13.634,1.874,116.519-32.186,116.519-32.186v-13.489"/>
			
				<line fill="none" stroke="#FFFFFF" stroke-width="4.9582" stroke-miterlimit="10" x1="7420.181" y1="7399.071" x2="7325.822" y2="7301.354"/>
			<path fill="none" stroke="#FFFFFF" stroke-width="4.9582" stroke-miterlimit="10" d="M7592.678,7259.001l46.285,79.332
				c0,0,9.993,19.455-3.021,23.552c0,0-93.104,36.374-141.446,45.051"/>
			<path fill="none" stroke="#FFFFFF" stroke-width="4.9582" stroke-miterlimit="10" d="M7642.628,7349.906
				c0,0,14.929,5.781,52.114-4.959c37.188-10.75,240.476-85.946,240.476-85.946"/>
			<path fill="none" stroke="#FFFFFF" stroke-width="4.9582" stroke-miterlimit="10" d="M8074.047,7186.952
				c-2.642,1.307-124.779,55.422-124.779,55.422s-17.355,5.781,0,18.38c17.354,12.6,31.4,22.051,31.4,22.051l12.361,9.452
				c0,0,9.493,11.03,44.016-3.147c34.523-14.178,103.939-49.941,103.939-49.941s14.047-10.71-4.133-24.888
				s-40.491-27.328-40.491-27.328S8088.479,7179.824,8074.047,7186.952z"/>
			<path fill="none" stroke="#FFFFFF" stroke-width="4.9582" stroke-miterlimit="10" d="M7941.553,7251.564
				c0,0-15.427,43.762-18.73,52.869c-3.305,9.108,32.228,34.728,59.499,52.909c27.27,18.177,24.79,23.958,49.582,14.042
				c24.791-9.916,127.597-66.951,127.597-66.951"/>
			
				<line fill="none" stroke="#FFFFFF" stroke-width="4.9582" stroke-miterlimit="10" x1="8146.163" y1="7224.293" x2="8159.5" y2="7244.068"/>
			<path fill="none" stroke="#FFFFFF" stroke-width="4.9582" stroke-miterlimit="10" d="M8096.36,7186.952
				c0,0,39.511-18.182,63.14-35.667"/>
			<path fill="none" stroke="#FFFFFF" stroke-width="4.9582" stroke-miterlimit="10" d="M7538.418,7213.845
				c0,0,16.873-34.388,27.737-42.067"/>
			<path fill="none" stroke="#FFFFFF" stroke-width="4.9582" stroke-miterlimit="10" d="M7982.428,7092.59
				c0,0,47.287,38.427,83.089,94.362"/>
			<path fill="none" stroke="#FFFFFF" stroke-width="4.9582" stroke-miterlimit="10" d="M7635.941,6996.844
				c0,0-18.303,48.014-11.67,52.821"/>
			
				<line fill="none" stroke="#FFFFFF" stroke-width="4.9582" stroke-miterlimit="10" x1="7840.541" y1="6996.844" x2="7864.222" y2="7028.579"/>
			<path fill="none" stroke="#FFFFFF" stroke-width="4.9582" stroke-miterlimit="10" d="M7470.094,7092.59
				c0,0-31.256,41.186-28.214,44.004"/>
			<path fill="none" stroke="#FFFFFF" stroke-width="4.9582" stroke-miterlimit="10" d="M7671.146,7092.59
				c0,0,24.043,24.259,26.918,31.497"/>
			<path fill="none" stroke="#FFFFFF" stroke-width="4.9582" stroke-miterlimit="10" d="M7544.373,6921.193
				c-0.065,0.251-25.159,26.94-19.205,33.908"/>
			<path fill="none" stroke="#FFFFFF" stroke-width="4.9582" stroke-miterlimit="10" d="M7745.446,6914.976
				c0,0,23.671,21.474,24.91,29.042"/>
			<path fill="none" stroke="#FFFFFF" stroke-width="4.9582" stroke-miterlimit="10" d="M7785.085,6878.457
				c0,0-26.391,19.939-29.603,30.989"/>
			
				<line fill="none" stroke="#FFFFFF" stroke-width="4.9582" stroke-miterlimit="10" x1="7988.984" y1="6863.959" x2="8014.515" y2="6891.036"/>
			<path fill="none" stroke="#FFFFFF" stroke-width="4.9582" stroke-miterlimit="10" d="M7698.063,6794.377
				c0.124,5.196-20.679,19.652-33.069,41.935"/>
			<path fill="none" stroke="#FFFFFF" stroke-width="4.9582" stroke-miterlimit="10" d="M8065.553,6791.6
				c0,0-44.553,73.221-41.582,91.815"/>
			<path fill="none" stroke="#FFFFFF" stroke-width="4.9582" stroke-miterlimit="10" d="M7976.619,6711.807
				c0,0-54.229,76.932-54.014,96.38c0.151,13.521-20.77-24.259-20.77-24.259"/>
			<path fill="none" stroke="#FFFFFF" stroke-width="4.9582" stroke-miterlimit="10" d="M7870.761,6659.503
				c0,0-43.385,62.962-44.624,76.501"/>
			<path fill="none" stroke="#FFFFFF" stroke-width="4.9582" stroke-miterlimit="10" d="M8152.833,7508.152
				c-24.1-14.875-250.87-194.271-250.87-194.271c-21.751,4.504-377.746,126.861-377.746,126.861l27.978,33.526"/>
			<path fill="none" stroke="#FFFFFF" stroke-width="4.9582" stroke-miterlimit="10" d="M7327.211,7431.044
				c0,0-39.043,32.068-44.001,43.225c-4.958,11.155,65.971,94.487,83.325,97.102"/>
			<path fill="none" stroke="#FFFFFF" stroke-width="4.9582" stroke-miterlimit="10" d="M7415.413,7517.391
				c-3.718,6.199-35.518,27.9-47.914,48.973c-12.396,21.072,99.078,101.93,99.078,101.93"/>
			<path fill="none" stroke="#FFFFFF" stroke-width="4.9582" stroke-miterlimit="10" d="M7510.695,7619.189
				c0,0-44.09,32.99-44.118,49.104c-0.028,16.114,71.98,71.207,71.98,71.207"/>
			
				<line fill="none" stroke="#FFFFFF" stroke-width="4.9582" stroke-miterlimit="10" x1="7612.457" y1="7527.089" x2="7652.598" y2="7566.388"/>
			<path fill="none" stroke="#FFFFFF" stroke-width="4.9582" stroke-miterlimit="10" d="M7714.758,7619.189
				c0,0,50.641,41.429,55.599,61.262s-130.043,59.049-130.043,59.049"/>
			
				<line fill="none" stroke="#FFFFFF" stroke-width="4.9582" stroke-miterlimit="10" x1="7626.078" y1="7459.748" x2="7592.678" y2="7508.152"/>
			<path fill="none" stroke="#FFFFFF" stroke-width="4.9582" stroke-miterlimit="10" d="M7827.383,7465.242
				c0,0,52.469,56.546,57.427,68.941c4.958,12.395-33.054,29.75-49.583,37.187c-16.527,7.438-125.909,39.114-125.909,39.114"/>
			
				<line fill="none" stroke="#FFFFFF" stroke-width="4.9582" stroke-miterlimit="10" x1="7401.381" y1="7739.5" x2="7073.16" y2="7387.915"/>
			
				<line fill="none" stroke="#FFFFFF" stroke-width="4.9582" stroke-miterlimit="10" x1="7304.302" y1="7741.143" x2="7008.361" y2="7423.35"/>
		</g>
		<use xlink:href="#SVGID_1_"  overflow="visible" fill="none" stroke="#FFFFFF" stroke-miterlimit="10"/>
	</g>
</g>
<g id="Layer_2" display="none">
	
		<rect x="6269.924" y="6659.501" display="inline" fill="none" stroke="#FFFFFF" stroke-width="4.871" stroke-miterlimit="10" width="1886.226" height="1060.999"/>
	<g display="inline">
		<defs>
			<rect id="SVGID_3_" x="6269.924" y="6659.501" width="1886.226" height="1060.999"/>
		</defs>
		<clipPath id="SVGID_4_">
			<use xlink:href="#SVGID_3_"  overflow="visible"/>
		</clipPath>
		<g clip-path="url(#SVGID_4_)">
			<path fill="none" stroke="#FFFFFF" stroke-width="4.871" stroke-miterlimit="10" d="M6459.5,7382.14"/>
			<path fill="none" stroke="#FFFFFF" stroke-width="4.871" stroke-miterlimit="10" d="M6446.461,7165.533
				c11.901,38.952,16.842,132.402,14.681,200.563"/>
			<path fill="none" stroke="#FFFFFF" stroke-width="4.871" stroke-miterlimit="10" d="M6453.5,7437.5"/>
			<path fill="none" stroke="#FFFFFF" stroke-width="4.871" stroke-miterlimit="10" d="M6576.656,6661.54
				c-69.331,58.542-133.099,157.375-146.994,207.927c0,0-17.267,53.537-17.826,81.21"/>
			<path fill="none" stroke="#FFFFFF" stroke-width="4.871" stroke-miterlimit="10" d="M6517.621,6963.787
				c0,0-2.135-15.147-61.627-24.997c-59.491-9.835-83.035,58.068-55.64,131.717c26.044,70.023,61.658,133.383,111.386,155.467
				c49.728,22.08,65.923,43.039,65.923,43.039c13.972,50.88,18.549,128.226,146.712,239.384
				c123.215,106.867,231.412,81.324,282.246,83.82c65.99,3.24,92.228-145.896,105.864-184.822
				c13.627-38.925,43.026-181.697,51.761-223.874c8.73-42.182-7.427-80.076,5.608-108.189
				c13.031-28.104,28.31-101.647,24.048-135.205c-4.268-33.546-23.413-85.209-23.413-85.209c0-0.002-57.765-124.535-186.352-193.378
				"/>
			<path fill="none" stroke="#FFFFFF" stroke-width="4.871" stroke-miterlimit="10" d="M6963.852,7010.954
				c0,0-14.63-21.936-36.569-23.567c-21.938-1.621-55.25,8.126-69.875,11.783"/>
			<path fill="none" stroke="#FFFFFF" stroke-miterlimit="10" d="M6944.066,6992.78c0,0,3.537,31.213-20.843,32.023
				c-24.374,0.811-32.273-11.883-29.139-34.397C6894.085,6990.406,6916.964,6981.912,6944.066,6992.78z"/>
			<path fill="none" stroke="#FFFFFF" stroke-width="4.871" stroke-miterlimit="10" d="M6954.911,7021.518
				c0,0-27.628,13.006-72.316-7.314"/>
			<path fill="none" stroke="#FFFFFF" stroke-width="4.871" stroke-miterlimit="10" d="M7095.441,7028.072
				c0,0,42.148-11.601,70.292,19.686"/>
			<path fill="none" stroke="#FFFFFF" stroke-miterlimit="10" d="M7153.008,7036.863c0,0,2.414,26.823-22.423,27.765
				c0,0-23.911-2.304-16.407-38.639C7114.178,7025.988,7131.849,7023.16,7153.008,7036.863z"/>
			<path fill="none" stroke="#FFFFFF" stroke-width="4.871" stroke-miterlimit="10" d="M7153.07,7064.627
				c0,0-22.02,4.681-48.259-11.245"/>
			<path fill="none" stroke="#FFFFFF" stroke-width="4.871" stroke-miterlimit="10" d="M7078.846,7011.172
				c0,0,4.841,22.132,11.077,44.972c6.239,22.835,28.91,97.486,34.342,116.966c5.432,19.474,9.401,58.419-28.824,71.404"/>
			<path fill="none" stroke="#FFFFFF" stroke-width="4.871" stroke-miterlimit="10" d="M6984.171,7231.53
				c-11.357-6.495-21.092-20.552-20.007-41.115c1.077-20.552,40.029-31.374,40.029-31.374"/>
			<path fill="none" stroke="#FFFFFF" stroke-miterlimit="10" d="M7004.193,7231.53c0,0,23.808-17.306,40.035-10.818
				C7060.452,7227.204,7045.306,7244.515,7004.193,7231.53z"/>
			<path fill="none" stroke="#FFFFFF" stroke-miterlimit="10" d="M7073.434,7243.554c0,0,11.359-14.563,21.891-8.271
				C7105.856,7241.575,7098.154,7253.649,7073.434,7243.554z"/>
			<path fill="none" stroke="#FFFFFF" stroke-width="4.871" stroke-miterlimit="10" d="M6987.964,7592.937
				c0,0,15.061,120.071-3.832,189.317c0,0-4.788,20.561-10.217,12.99c-5.427-7.572,14.968-42.202-9.842-41.117
				c-24.795,1.078-62.669,3.4-85.388,28.127c-22.723,24.731-35.705,29.905-35.705,29.905h-11.902c0,0,62.391-68.493,104.591-78.226"
				/>
			<path fill="none" stroke="#FFFFFF" stroke-width="4.871" stroke-miterlimit="10" d="M6766.519,7806.985c0,0,5.049-50.699,0-58.63
				c-5.05-7.938-54.095,10.818-66.359,0c-12.265-10.815,0-25.972-6.491-31.019c-6.495-5.047-118.298-88.726-157.969-129.834
				c-39.67-41.117-91.389-125.794-95.723-156.095c-4.323-30.288,17.444-32.114,19.522-49.269c0.466-3.824,1.643-16.044,1.643-16.044
				s-23.541-1.479-35.801,9.343c-12.262,10.817-7.938,19.474-35.346,58.419c-27.409,38.959-29.576,46.17-43.278,59.15
				c-13.707,12.981-5.044,100.267,13.703,124.069c18.757,23.804,134.162,166.557,210.624,195.082h77.182
				c0,0-3.976-63.417,19.111-77.841c23.078-14.431,21.989-10.021,27.165,2.493"/>
			<path fill="none" stroke="#FFFFFF" stroke-width="4.871" stroke-miterlimit="10" d="M6451.524,7812.159
				c0,0-130.425-129.438-176.51-208.063c0,0-35.346-54.405,0-61.316c20.119-3.93,47.178-35.344,57.277-49.766
				c10.1-14.423,19.489-5.108,19.489-5.108"/>
			<path fill="none" stroke="#FFFFFF" stroke-width="4.871" stroke-miterlimit="10" d="M7218.065,7812.159
				c0,0-26.696-16.915-46.169-23.413c-19.474-6.492-119.736-72.865-137.77-86.199c-18.028-13.342-40.563-24.169-40.563-24.169"/>
			<path fill="none" stroke="#FFFFFF" stroke-width="4.871" stroke-miterlimit="10" d="M6545.437,7195.289
				c0,0-14.067,5.95-28.134-13.528c-14.061-19.47-44.353-18.394-65.778-44.359c-21.419-25.969-43.497-128.754-42.412-150.161
				c1.08-21.403,24.884-28.368,53.453-13.218c28.572,15.154,62.314,98.461,62.314,98.461s-22.723-37.511-29.212-25.245
				c-6.493,12.261-31.414,42.554-18.411,58.785c12.999,16.23,33.56,19.476,48.705,33.543c15.149,14.063,31.379,18.394,19.475-5.409
				c-11.898-23.809-11.898-49.773-4.326-58.432"/>
			<path fill="none" stroke="#FFFFFF" stroke-miterlimit="10" d="M6973.82,6879.598c0,0,16.463,11.559,10.315,18.23
				c-6.144,6.677-11.987,15.021-14.49,14.189c-2.504-0.836-24.417-7.515-35.153-16.691c-10.741-9.178-47.452-20.859-60.803-23.365
				c-13.349-2.5-54.239-15.018-68.425-9.179c-14.179,5.844,10.018-20.024,40.891-15.016
				C6877.028,6852.772,6951.895,6862.782,6973.82,6879.598z"/>
			<path fill="none" stroke="#FFFFFF" stroke-miterlimit="10" d="M7129.312,6932.043c0,0-8.126,12.508-5.047,19.184
				c3.085,6.681,14.765-8.341,36.458-5.836c21.7,2.502,33.568,7.567,33.568,7.567s-2.983-25.697-4.086-29.776
				C7189.106,6919.102,7144.626,6921.192,7129.312,6932.043z"/>
			<path fill="none" stroke="#FFFFFF" stroke-miterlimit="10" d="M7073.768,7347.286c0,0-8.383-24.986-28.579-23.587
				c-20.195,1.397-30.879-19.472-78.73-3.826c-47.859,15.65-70.097,20.384-70.097,20.384s5.337,12.733,39.387,33.793
				c34.052,21.066,105.483,22.57,122.277,4.097C7074.813,7359.669,7080.157,7359.165,7073.768,7347.286z"/>
			<path fill="none" stroke="#FFFFFF" stroke-miterlimit="10" d="M6950.104,7329.454c4.282-1.352,8.737-2.783,13.526-4.349
				c47.852-15.649,58.536,5.224,78.731,3.825c20.194-1.404,28.579,23.584,28.579,23.584s-80.498-11.35-120.837-23.058V7329.454z"/>
			<path fill="none" stroke="#FFFFFF" stroke-width="4.871" stroke-miterlimit="10" d="M7076.691,7354.094
				c0,0-8.768-46.228-21.355-48.415c-12.584-2.188-19.974-11.844-54.691-8.42c-34.714,3.421-104.282,42.998-104.282,42.998
				s13.507,51.877,54.357,73.488C6991.564,7435.351,7086.674,7423.439,7076.691,7354.094z"/>
			<path fill="none" stroke="#FFFFFF" stroke-width="4.871" stroke-miterlimit="10" d="M6857.408,7337.636
				c0,0,15.624-59.333,47.243-93.121c31.621-33.783,84.491-105.125,84.491-105.125"/>
			<path fill="none" stroke="#FFFFFF" stroke-width="4.871" stroke-miterlimit="10" d="M7095.441,7244.515
				c0,0,26.69,78.231,4.476,115.468"/>
		</g>
		<use xlink:href="#SVGID_3_"  overflow="visible" fill="none" stroke="#FFFFFF" stroke-miterlimit="10"/>
	</g>
	<g display="inline">
		
			<line fill="none" stroke="#FFFFFF" stroke-width="4.871" stroke-miterlimit="10" stroke-dasharray="24.3551,24.3551" x1="7524.606" y1="6659.499" x2="7524.606" y2="7720.5"/>
		
			<line fill="none" stroke="#FFFFFF" stroke-width="14.613" stroke-miterlimit="10" x1="6895.865" y1="6661.54" x2="6895.865" y2="7719.14"/>
		<g>
			<g>
				
					<line fill="none" stroke="#FFFFFF" stroke-width="4.871" stroke-miterlimit="10" x1="8153.348" y1="7366.832" x2="8141.17" y2="7366.832"/>
				
					<line fill="none" stroke="#FFFFFF" stroke-width="4.871" stroke-miterlimit="10" stroke-dasharray="24.1801,24.1801" x1="8116.99" y1="7366.832" x2="6291.391" y2="7366.832"/>
				
					<line fill="none" stroke="#FFFFFF" stroke-width="4.871" stroke-miterlimit="10" x1="6279.301" y1="7366.832" x2="6267.124" y2="7366.832"/>
			</g>
		</g>
		
			<line fill="none" stroke="#FFFFFF" stroke-width="14.613" stroke-miterlimit="10" x1="8153.348" y1="7013.168" x2="6267.124" y2="7013.168"/>
	</g>
</g>
<g id="Layer_6" display="none">
	
		<line display="inline" fill="none" stroke="#FFFFFF" stroke-width="4.9528" stroke-miterlimit="10" stroke-dasharray="24.764,24.764" x1="6241.607" y1="7378.41" x2="8159.5" y2="7378.41"/>
	
		<line display="inline" fill="none" stroke="#FFFFFF" stroke-width="4.9528" stroke-miterlimit="10" x1="7514.127" y1="7016.953" x2="6627.287" y2="7739.5"/>
	
		<line display="inline" fill="none" stroke="#FFFFFF" stroke-width="4.9528" stroke-miterlimit="10" x1="7514.127" y1="7016.953" x2="6241.607" y2="7739.5"/>
	
		<line display="inline" fill="none" stroke="#FFFFFF" stroke-width="4.9528" stroke-miterlimit="10" x1="6241.607" y1="7507.164" x2="7514.127" y2="7016.953"/>
	
		<line display="inline" fill="none" stroke="#FFFFFF" stroke-width="4.9528" stroke-miterlimit="10" x1="7517.237" y1="7016.953" x2="7953.397" y2="7739.5"/>
	
		<line display="inline" fill="none" stroke="#FFFFFF" stroke-width="4.9528" stroke-miterlimit="10" x1="7517.237" y1="7016.953" x2="8159.5" y2="7737.643"/>
	
		<line display="inline" fill="none" stroke="#FFFFFF" stroke-width="4.9528" stroke-miterlimit="10" x1="8159.5" y1="7479.924" x2="7517.237" y2="7016.953"/>
	<polyline display="inline" fill="none" stroke="#FFFFFF" stroke-width="4.9528" stroke-miterlimit="10" points="8159.5,7739.5 
		8159.5,6660.685 6241.607,6660.685 	"/>
	<g display="inline">
		<path fill="none" stroke="#FFFFFF" stroke-width="4.9528" stroke-miterlimit="10" d="M7327.895,7318.348
			c0,0,11.569,14.801,6.292,18.771c-5.276,3.971-27.811,23.56-41.102,25.592c0,0-14.815-23.115,2.52-37.562
			C7312.939,7310.706,7322.758,7310.406,7327.895,7318.348z"/>
		<path fill="none" stroke="#FFFFFF" stroke-width="4.9528" stroke-miterlimit="10" d="M7304.271,7274.305
			c0,0-21.465-8.174-24.353,14.113c-2.888,22.288,7.739,50.834,19.443,50.834c11.705,0,34.516-24.033,26.636-31.689
			c-7.884-7.652-22.964-32.668-22.964-32.668"/>
		<path fill="none" stroke="#FFFFFF" stroke-width="4.9528" stroke-miterlimit="10" d="M7245.873,7110.959"/>
		<path fill="none" stroke="#FFFFFF" stroke-width="4.9528" stroke-miterlimit="10" d="M7245.873,7110.959
			c0,0-12.798,30.316-15.961,35.888c0,0-5.881,11.947-6.433,17.335c-1.137,11.085-8.667,18.573-7.43,10.263
			c1.238-8.319-3.095-9.025-3.095-9.025s-4.953,0-12.401,11.763c-7.449,11.763-11.744,17.335-11.995,9.853
			c-0.363-10.81,19.719-31.976,26.254-45.286c3.966-8.078,11.763-47.854,11.763-47.854c-3.715-40.479-9.906-63.438-6.191-83.869
			c3.715-20.431,29.853-19.424,35.908-24.764c5.088-4.479,5.073-13.823,5.073-13.823c16.518-18.157,28.406-8.464,28.406-8.464
			s-0.929,8.522,7.869,15.265c8.798,6.733,25.514,6.084,31.086,12.875c5.571,6.8,22.5,49.325,27.032,70.882
			c5.983,28.464,7.018,78.534,7.018,78.534c-0.633,13.766-2.461,50.138-9.905,49.785c-6.81-0.324,0.619-22.515,0-33.059
			c0,0,0-23.594-6.19,0c-2.104,8.019-8.668-1.151-4.953-12.643c3.715-11.487,3.096-12.779,1.857-28.305
			c-1.238-15.531-10.999-43.144-10.999-43.144c-2.108-6.283-12.855-25.388-12.855-25.388c6.655,17.833,16.217,73.484,17.044,97.421
			c0.827,23.937-19.395,86.263-19.395,86.263c-4.953,23.938-21.461,71.816-16.508,87.09c4.952,15.275-8.111,37.969-8.111,37.969
			c0.865,19.371-19.956,21.891-47.468,21.891c-27.511,0-16.236-12.401-6.626-17.354c9.605-4.953,13.678-21.805,13.678-21.805
			c-2.297-7.777,8.958-57.111,8.958-57.111s-0.658-26.786-12.934-61.891c-12.275-35.105-4.672-94.074-4.672-94.074
			L7245.873,7110.959c0,0,0.416-32.73-2.374-59.729"/>
		<path fill="none" stroke="#FFFFFF" stroke-width="4.9528" stroke-miterlimit="10" d="M7249.434,6938.221
			c-0.193,1.625-2.83,11.008,7.09,27.937c9.916,16.929,21.476,12.585,26.737,7.502c5.263-5.083,12.557-26.143,9.626-43.207
			c-2.922-17.054-20.479-23.835-29.325-20.653C7254.715,6912.983,7250.923,6925.665,7249.434,6938.221z"/>
		<path fill="none" stroke="#FFFFFF" stroke-width="4.9528" stroke-miterlimit="10" d="M7261.303,7282.141
			c0,0,18.587-108.875,18.138-117.542"/>
		<path fill="none" stroke="#FFFFFF" stroke-width="4.9528" stroke-miterlimit="10" d="M7251.503,7342.125
			c0,0,15.135-5.417,24.165-0.053c9.025,5.363,13.407,22.007,17.093,14.447"/>
		<path fill="none" stroke="#FFFFFF" stroke-width="4.9528" stroke-miterlimit="10" d="M7241.694,7151.626
			c0,0,35.646,1.828,91.776-17.393"/>
		<path fill="none" stroke="#FFFFFF" stroke-width="4.9528" stroke-miterlimit="10" d="M7256.292,6985.263
			c0,0,22.572,22.907,45.146-4.74"/>
	</g>
	
		<line display="inline" fill="none" stroke="#FFFFFF" stroke-width="4.9528" stroke-miterlimit="10" stroke-dasharray="24.764,24.764" x1="6241.607" y1="7018.81" x2="8159.5" y2="7018.81"/>
	<g display="inline">
		<path fill="none" stroke="#FFFFFF" stroke-width="4.9528" stroke-miterlimit="10" d="M7441.185,7313.337
			c-25.475-15.971-14.94-50.582-14.94-50.582c-25.997-63.255-12.223-128.144-12.223-128.144c-4.149-9.074-5.127-38.307-5.127-38.307
			s22.559-13.388,30.694-1.698C7447.719,7106.297,7460.895,7322.169,7441.185,7313.337"/>
		<path fill="none" stroke="#FFFFFF" stroke-width="4.9528" stroke-miterlimit="10" d="M7531.932,7617.73c0,0,4.624,3.279,0,28.044
			c-4.614,24.764,7.008,35.907,52.13,33.431c45.126-2.476,11.637-33.015,2.331-49.634"/>
		<path fill="none" stroke="#FFFFFF" stroke-width="4.9528" stroke-miterlimit="10" d="M7554.62,7653.822c0,0,9.06-11.144,32.919,0"
			/>
		<path fill="none" stroke="#FFFFFF" stroke-width="4.9528" stroke-miterlimit="10" d="M7474.19,7560.561
			c0,0,1.495,5.35-4.246,27.638c-5.736,22.288,21.784,30.335,39.593,18.573c17.809-11.764,17.286-15.479,7.376-43.338"/>
		<path fill="none" stroke="#FFFFFF" stroke-width="4.9528" stroke-miterlimit="10" d="M7530.538,7553.528
			c-0.444,17.954-4.899,40.241,0,58.195c4.904,17.954,62.394,22.907,62.394,12.382c0-10.524,13.693-36.526,14.975-68.101
			c1.277-31.574-13.311-36.526-8.188-50.147c5.112-13.619,9.142-53.861,1.562-104.086c-7.574-50.225,21.717-144.328,21.717-144.328
			c-66.064-74.456-177.154-20.202-177.154-20.202s-2.143,107.651-1.466,167.085c0.319,28.381-1.664,26.621,20.87,97.816
			c10.762,34.003-2.084,43.338,5.741,55.101C7478.814,7569.006,7524.274,7565.91,7530.538,7553.528z"/>
		<path fill="none" stroke="#FFFFFF" stroke-width="4.9528" stroke-miterlimit="10" d="M7476.725,7593.77
			c0,0,8.354-14.81,40.188-7.41"/>
		<path fill="none" stroke="#FFFFFF" stroke-width="4.9528" stroke-miterlimit="10" d="M7530.538,7553.528
			c0,0-11.134-92.042-6.757-98.645s-3.153-60.909-4.595-68.338s-9.581-68.343-9.581-98.408"/>
		<path fill="none" stroke="#FFFFFF" stroke-width="4.9528" stroke-miterlimit="10" d="M7611.534,7162.606
			c3.661,19.864,2.834,32.256,7.937,55.99c4.039,18.785,6.786,21.668,6.013,34.051c-0.784,12.381-84.836,20.556-99.424,14.857
			c-16.895-6.606-17.137-33.847-17.137-33.847c0.213,23.777-10.172,39.555-27.743,32.608c-0.77-0.309-1.553-0.623-2.365-0.947
			c-18.878-7.637-34.631-16-45.523-21.34c-11.352-5.572-1.692-35.289,0-50.766c1.693-15.478,4.488-35.908,4.488-70.229
			c0-15.719-1.537-51.022-1.537-51.022c-14.753,5.813-24.992-17.412-24.992-17.412s-0.348-28.909-1.388-52.435
			c-1.045-23.526,14.955-35.908,23.995-39.207c9.059-3.308,40.86-19.506,40.86-19.506c8.667-5.257,14.786-13.523,10.539-32.072
			h8.266l49.32-11.26c0,0-5.794,20.856,9.645,28.411c15.438,7.555,10.747,5.533,10.747,5.533s27.192,11.966,40.749,15.274
			c13.577,3.299,29.233,7.84,36.89,46.225c7.647,38.384,12.17,72.643,12.17,72.643c-9.045,16.919-50.447,35.908-53.253,29.301
			c0,0,8.973,44.507,15.836,91.549"/>
		<path fill="none" stroke="#FFFFFF" stroke-width="4.9528" stroke-miterlimit="10" d="M7551.206,6836.089
			c0,0,7.434-51.182-38.796-50.36c-46.229,0.832-54.48,39.627-47.052,70.171c7.43,30.539-4.13,26.414,10.729,47.052
			c25.765,35.777,30.374,40.159,59.438,15.681c31.365-26.418,20.633-47.052,20.633-47.052S7579.273,6832.785,7551.206,6836.089z"/>
		<path fill="none" stroke="#FFFFFF" stroke-width="4.9528" stroke-miterlimit="10" d="M7651.466,7057.044
			c0,0,13.06,2.457,16.885,21.838c3.265,16.532,3.831,26.002-33.049,38.384c-36.885,12.382-38.269,3.714-43.84-16.919
			c-5.572-20.638,2.781-24.353,2.781-24.353S7622.126,7085.973,7651.466,7057.044z"/>
		<path fill="none" stroke="#FFFFFF" stroke-width="4.9528" stroke-miterlimit="10" d="M7659.408,7107.341
			c0,0-0.175,21.437,4.88,32.372c5.05,10.941,8.464,22.346-0.237,28.14c-8.696,5.79-88.376,34.785-93.812,48.169
			c-6.501,16.058-14.65,17.635-37.64,8.464c0,0-41.861-25.46-5.896-39.177c28.899-11.027,23.226,0.083,35.235-6.288
			c12.015-6.355,39.206-51.961,68.4-42.698"/>
		<path fill="none" stroke="#FFFFFF" stroke-width="4.9528" stroke-miterlimit="10" d="M7436.242,7071.961
			c0,0-28.344-26.524-31.478-16.634c-3.125,9.887-8.349,26.989,0,35.463c8.348,8.474,29.856,28.275,31.478,25.19
			C7436.242,7115.98,7445.925,7097.117,7436.242,7071.961z"/>
		<path fill="none" stroke="#FFFFFF" stroke-width="4.9528" stroke-miterlimit="10" d="M7457.122,7432.016
			c0,0,32.454,11.497,52.483-5.402"/>
		<path fill="none" stroke="#FFFFFF" stroke-width="4.9528" stroke-miterlimit="10" d="M7474.539,6858.473
			c0,0,7.453-5.964,16.449-2.292"/>
		<path fill="none" stroke="#FFFFFF" stroke-width="4.9528" stroke-miterlimit="10" d="M7521.126,6854.082
			c0,0,4.295-4.469,14.999-0.242"/>
		<path fill="none" stroke="#FFFFFF" stroke-width="4.9528" stroke-miterlimit="10" d="M7485.306,6859.46
			c-0.271,1.528-1.727,2.549-3.251,2.283c-1.533-0.271-2.559-1.722-2.287-3.255c0.266-1.529,1.727-2.549,3.255-2.288
			C7484.551,6856.471,7485.571,6857.931,7485.306,6859.46z"/>
		<path fill="none" stroke="#FFFFFF" stroke-width="4.9528" stroke-miterlimit="10" d="M7531.177,6856.263
			c-0.188,1.543-1.587,2.636-3.124,2.442c-1.543-0.188-2.642-1.586-2.458-3.125c0.194-1.543,1.597-2.641,3.14-2.447
			C7530.272,6853.317,7531.37,6854.72,7531.177,6856.263z"/>
		
			<line fill="none" stroke="#FFFFFF" stroke-width="4.9528" stroke-miterlimit="10" x1="7611.466" y1="7122.983" x2="7617.271" y2="7135.578"/>
		<path fill="none" stroke="#FFFFFF" stroke-width="4.9528" stroke-miterlimit="10" d="M7519.429,7210.131"/>
		<path fill="none" stroke="#FFFFFF" stroke-width="4.9528" stroke-miterlimit="10" d="M7531.196,6789.115
			c0,0,24.14,6.636,24.14,33.46c0,26.829-4.231,18.989-4.231,18.989s-27.043-28.067-29.979-35.497
			C7521.126,6806.067,7519.027,6789.076,7531.196,6789.115z"/>
		<path fill="none" stroke="#FFFFFF" stroke-width="4.9528" stroke-miterlimit="10" d="M7520.71,6803.596
			c0,0-38.413,42.012-61.358,42.263c0,0-14.177-31.738,7.763-45.213c21.949-13.471,36.436-19.782,51.797-18.099
			c3.84,0.426,6.181,1.615,7.463,3.26C7530.229,6790.73,7524.487,6799.659,7520.71,6803.596z"/>
		<path fill="none" stroke="#FFFFFF" stroke-width="4.9528" stroke-miterlimit="10" d="M7482.346,6934.013
			c0,0-21.848,22.327-22.607,36.358c-0.764,14.031,20.111,19.816,32.639,36.319l11.966-19.018c0,0-31.443-15.651-25.296-33.209
			C7484.604,6940.117,7482.346,6934.013,7482.346,6934.013z"/>
		<path fill="none" stroke="#FFFFFF" stroke-width="4.9528" stroke-miterlimit="10" d="M7552.487,6928.479
			c0,0,11.482,0.6,12.619,6.346c1.219,6.152-6.849,25.547-28.164,48.918c-21.32,23.371-44.285,37.982-46.38,51.129
			c-2.079,13.146-13.214-0.726-2.771-21.916C7498.22,6991.773,7552.487,6928.479,7552.487,6928.479z"/>
		<path fill="none" stroke="#FFFFFF" stroke-width="4.9528" stroke-miterlimit="10" d="M7411.217,7052.309"/>
		<path fill="none" stroke="#FFFFFF" stroke-width="4.9528" stroke-miterlimit="10" d="M7581.749,7016.561
			c0,0,10.965,52.832,12.494,59.434"/>
		<path fill="none" stroke="#FFFFFF" stroke-width="4.9528" stroke-miterlimit="10" d="M7436.977,7016.561
			c0,0-2.229,39.608,0.653,59.434"/>
	</g>
	
		<line display="inline" fill="none" stroke="#FFFFFF" stroke-width="4.9528" stroke-miterlimit="10" stroke-dasharray="24.764,24.764" x1="6880.904" y1="6659.2" x2="6880.904" y2="7738.01"/>
	
		<line display="inline" fill="none" stroke="#FFFFFF" stroke-width="9.9056" stroke-miterlimit="10" x1="7520.202" y1="6661.275" x2="7520.202" y2="7736.627"/>
</g>
<g id="Layer_5">
	
		<rect x="7366.262" y="6762.861" fill="none" stroke="#FFFFFF" stroke-width="4.9514" stroke-miterlimit="10" width="794.238" height="128.737"/>
	
		<rect x="7242.729" y="6891.599" fill="none" stroke="#FFFFFF" stroke-width="4.9514" stroke-miterlimit="10" width="917.771" height="486.911"/>
	
		<line fill="none" stroke="#FFFFFF" stroke-width="10" stroke-miterlimit="10" x1="7102.752" y1="7378.172" x2="8160.5" y2="7378.172"/>
	<g>
		<path fill="none" stroke="#FFFFFF" stroke-width="4.9514" stroke-miterlimit="10" d="M6633.544,7084.123
			c7.916,6.639,10.865,25.579,6.087,38.542c-1.45,5.508,9.57-1.445,8.113,4.057c0.716,2.669,3.569,3.191,4.057,6.088
			c8.748,0.721,14.366,4.58,20.29,8.114c6.784,20.541,5.227,42.334,0,60.853c-0.193,0.683,0.498,3.646,0,4.062
			c-3.375,2.756-1.804,13.523-4.057,20.279c-0.242,0.716-1.925,0.019-2.021,2.03c-0.387,7.156,0.706,19.651,2.021,30.425
			c1.76,14.414,2.848,40.133,2.031,62.887c1.495,6.913-7.485,3.339-8.124,8.116c1.431,16.109,2.97,31.631,2.031,48.681
			c-0.445,8.184-3.123,16.271-2.031,24.344c1.557,11.418,10.444,17.852,10.15,28.4c-4.638,1.434-13.719,7.883-22.316,2.023
			c-3.791-1.883,0.262-5.427,0-8.115c0.01,0.112-1.958-0.647-2.031-2.021c-0.101-1.947-0.173-4.147,0-6.088
			c0.455-5.037,4.072-10.792,4.057-16.232c-0.014-3.795-1.348-6.732-2.026-10.141c-0.299-1.494,1.006-7.113,0-8.113
			c-0.149-0.149-1.992,0.168-2.031,0c-0.705-3.069-1.251-7.103-2.03-10.145c-2.872-11.261,1.47-36.126-10.14-44.627
			c-8.98,2.022-5.953,12.253-6.088,18.256c-0.17,7.672,2.195,13.965,2.031,20.293c-0.242,9.366-4.149,17.8-4.057,26.363
			c0.159,15.266,9.473,28.847,6.083,40.569c-8.081,2.045-13.162,1.25-20.275-2.023c-4.062,0-8.114,0-12.171,0
			c-1.987-2.08-4.022-4.104-6.098-6.092c2.814-1.243,0.32-7.805,4.067-8.108c3.631,0.256,4.269-2.481,8.104-2.035
			c2.529-2.949,3.371-5.877,6.098-10.135c4.138-6.494,0.556-21.098-2.031-32.461c-2.138-9.341-2.486-27.536-2.031-42.594
			c-2.282-6.515-13.8-3.787-18.258-8.116c0.077-20.085-0.895-37.501,2.021-54.773c1.281-7.494,2.456-13.124,4.061-20.279
			c0.285-1.287-0.319-2.785,0-4.062c0.464-1.852,0.745-4.66,2.036-10.139c0.392-1.693,1.866-1.993,2.03-4.058
			c0.508-7.146-5.589-15.241,0-22.31c-0.855-4.561-10.777-0.059-12.18-4.062c-1.925-12.973-0.764-33.47,2.031-44.621
			c2.446-9.762,10.227-17.707,22.32-20.289c-0.89-2.495-2.606-4.168-6.098-4.057c-1.204-3.39,0.349-7.393-2.016-12.175
			c-0.299-0.585-3.626,0.537-4.057,0c-0.855-1.035,1.001-5.256,0-6.083c-2.586-2.118-0.817-3.477-2.03-10.14
			c-0.479-2.621-2.79-9.023,2.03-14.207c1.011-1.093,3.893-4.438,6.073-6.083c0.721-0.537,3.516,0.677,4.067,0
			C6613.084,7081.855,6623.8,7080.574,6633.544,7084.123z"/>
		<path fill="none" stroke="#FFFFFF" stroke-width="4.9514" stroke-miterlimit="10" d="M6411.905,7111.187
			c1.189,7.263-5.991,6.165-12.166,6.078c0.706,10.856-0.895,19.4-4.052,26.382c3.81,5.643,15.019,3.907,20.279,8.109
			c11.222,21.851,18.37,57.584,14.211,87.226c-0.363,2.479-1.325,7.706-2.041,10.144c-0.595,2.04-1.683,6.697-4.047,8.114
			c4.836,17.476,2.747,41.864,6.087,60.854c0.315,8.437-12.189,4.051-14.211,10.146c-2.945,4.299-2.215,9.602-2.031,14.195
			c0.16,4.048,2.002,8.642,2.031,12.171c0.145,16.035-3.182,32.852-2.031,50.714c2.021,2.707,5.483,3.984,6.092,8.112
			c8.462,4.382,21.754,3.938,24.337,14.201c-3.352,4.764-11.833,4.391-20.275,4.058c-9.144,2.611-22.881,7.195-30.434,0
			c0-3.07,1.161-3.768,2.031-6.083c0.324-0.904,2.06-2.186,2.021-2.035c0.309-1.571-1.939-2.346-2.021-2.025
			c1.837-6.751,6.382-10.33,4.052-20.285c-0.406-1.696-1.809-2.003-2.031-4.058c-1.354-12.755,0.058-23.602-6.083-32.453
			c-1.688-11.369,3.269-19.216,0-26.371c0.097-6.859-4.729-8.802-8.113-12.168c0.623-7.398-0.329-13.206-2.031-18.264
			c-4.468,1.427-0.928,11.531-2.031,18.264c0.053-0.328-1.803,1.117-2.021,2.027c-1.141,4.554-0.502,7.16-2.026,14.195
			c-0.373,1.697-1.91,1.987-2.036,4.058c-0.203,3.326,1.755,8.03,2.036,12.171c0.678,9.992-0.696,20.226-2.036,30.428
			c-0.629,4.808-2.244,10.058-2.026,14.196c0.653,12.428,9.666,23.849,6.088,36.514c-12.359,3.965-24.564-1.757-32.46-8.11
			c0.71-10.787,12.132-10.85,16.232-18.259c-1.102-11.561-3.162-22.117-6.087-32.453c-0.198-0.687,0.493-3.646,0-4.062
			c-2.582-2.103-1.088-4.12-2.031-8.115c-0.392-1.687-1.891-1.99-2.017-4.05c-0.309-4.512,1.577-5.078,2.017-8.115
			c1.262-8.612-0.924-18.742,0-30.424c-4.439-5.027-13.979-4.952-18.254-10.146c0.087-5.552,1.673-11.228,2.031-16.23
			c0.803-11.523,3.051-36.648-2.031-44.627c-1.47-2.301-2.272-4.226-4.061-6.083c-1.727-1.803-1.824-5.802-4.053-10.144
			c-0.522-1.017-3.791-3.26-4.052-4.053c-0.425-1.213,0.31-2.818,0-4.062c-0.512-2.008-1.111-5.89-2.04-12.17
			c-0.841-5.76-2.012-14.26,0-26.373c0.034-0.174,1.954-0.44,2.04-2.026c0.774-14.821,6.17-30.888,16.228-40.574
			c3.738-0.991,8.24-1.552,12.175-4.057c0.852-0.551,7.34-1.151,8.104-2.021c0.942-1.083-0.329-7.829,6.083-6.093
			c-2.447-7.698-4.313-15.966-6.083-24.341c4.947-2.118,3.579-9.134,6.083-12.17c1.538-1.848,4.11-0.542,6.087-2.031
			c2.539-1.9,1.465-3.559,6.088-4.057c10.164-1.093,16.633,6.257,22.311,14.201
			C6403.307,7110.321,6411.653,7106.705,6411.905,7111.187z"/>
		<path fill="none" stroke="#FFFFFF" stroke-width="4.9514" stroke-miterlimit="10" d="M6550.699,7100.641
			c3.472,6.209,10.502,11.963,6.088,20.29c5.488,8.017,4.173,13.781,6.088,22.311c-2.379,0.329-1.712,3.694-2.031,6.088
			c-2.863-0.179-5.739-0.334-6.083,2.031c-0.068,6.053,8.139,6.677,12.166,8.113c5.609,1.987,11.117,2.655,16.228,4.053
			c3.235,6.059,3.646,18.219,6.093,28.402c0.773,3.226,0.28,2.229,2.03,4.053c0.861,0.9,3.211,6.383,2.021,12.17
			c-1.402,6.809-5.376,12.225-14.206,14.202c2.582,7.306,0.929,14.443,2.041,22.315c0.822,5.889,3.723,12.334,4.057,18.258
			c0.899,15.917-3.642,31.045-2.036,48.684c-1.973,0.058-1.576,2.479-2.021,4.05c1.784,6.524-6.688,2.779-6.092,8.126
			c-3.104,14.959,1.054,28.232,0,48.682c-0.731,14.235-5.696,27.639-4.053,42.588c3.68,5.118,12.553,5.035,16.228,10.146
			c1.189,7.269-5.996,6.171-12.175,6.088c-1.954,4.13-7.785,4.381-14.197,4.058c-4.091-3.975-3.931-7.226-4.057-12.17
			c-0.121-4.688,2.287-8.216,2.031-12.171c-0.242-3.559-1.571-4.411-2.031-8.112c-0.855-6.985-0.242-10.805-2.026-18.261
			c-4.003-16.654-1.015-47.968-8.124-66.939c-6.527-1.081-6.585,7.388-8.104,12.175c-1.102,3.481-1.363,5.552-2.03,8.108
			c-3.975,15.052-2.051,45.959-4.062,66.946c1.992,1.174,0.938,3.878,2.041,6.083c2.157,4.336,9.468,6.246,8.104,16.226
			c-11.479-2.02-12.137,6.784-24.332,4.058c0.213-13.273,5.164-20.511,2.011-34.481c-0.822-3.693-1.262-7.223-2.011-10.143
			c-0.14-0.504-1.939-0.186-2.031-2.032c-0.169-3.243-1.383-3.512-2.03-6.083c-0.493-1.904,0.425-4.163,0-6.082
			c-0.087-0.382-4.004-6.504-2.031-8.113c2.562-2.101-0.261-0.895,0-4.062c0.938-11.472,3.36-23.443,2.031-38.544
			c1.779-6.511-5.267-4.2-6.093-8.107c0.715-13.819-0.566-26.005-2.021-38.549c-0.299-2.64,0.464-5.492,0-8.113
			c-0.348-1.963-2.176-3.008-2.031-6.083c0.348-7.688,4.709-15.081,6.083-22.314c1.461-7.685,0.513-12.655,2.032-20.284
			c0.444-2.206-0.155-3.734,2.031-4.053c-5.89-13.052-9.574-28.287-12.176-44.63c7.592-7.292,20.454-9.299,28.394-16.228
			c-2.05-5.381-9.371-5.497-12.156-10.144c-5.696-6.407-5.889-7.282-8.124-16.228c-0.368-1.499-2.596-6.353,2.032-10.144
			c0.657-0.537-0.503-3.322,0-4.052c1.189-1.751,4.328-2.751,6.092-4.062c1.016-0.764,3.317-3.699,4.052-4.052
			c2.089-1.025,5.822,0.537,8.104,0c2.761-0.653,3.946-1.286,10.145-2.031c0.614-0.072,3.714,0.416,4.062,0
			C6545.912,7101.085,6547.565,7100.351,6550.699,7100.641z"/>
		<path fill="none" stroke="#FFFFFF" stroke-width="4.9514" stroke-miterlimit="10" d="M6489.329,7102.565
			c3.597,6.924,13.364,11.914,10.149,26.372c-0.082,0.377-1.939,0.28-2.031,2.026c-0.024,0.537,0.198,1.533,0,2.026
			c-0.75,1.895-2.162,5.918-4.048,10.145c-0.425,0.947-1.924-0.164-2.03,2.031c-0.136,2.331-0.087,3.626-2.04,4.057
			c4.081,6.067,11.353,8.94,22.319,8.119c4.042,4.327,7.19,12.915,10.135,20.28c0.299,0.72-0.546,3.598,0,4.051
			c2.243,1.838,1.034,2.786,2.031,6.093c0.329,1.074,2.041,2.107,2.03,2.021c0.513,3.066-2.127,6.369-2.03,10.144
			c0.087,3.317,1.306,4.729,2.03,8.119c0.271,1.282-0.319,2.781,0,4.058c2.399,9.569,3.347,27.744-6.083,34.485
			c-2.209,5.29-2.186,13.723-4.057,22.311c-2.605,11.963-2.287,36.115-4.057,54.77c-2.234,23.727-8.017,47.895-8.113,71
			c-14.545-3.729-14.439,7.203-18.249,14.195c0.498,6.256,7.296,6.229,10.13,10.146c2.606-2.795,12.122-3.531,12.18,2.03
			c1.238,10.027-8.229,9.346-16.227,10.135c-5.725,3.075-12.679,4.902-22.32,4.062c-2.945-7.272,3.259-13.24,4.062-18.261
			c0.58-3.741-2.186-13.149,0-18.248c0.382-0.884,2.272,0.238,2.021-2.034c-0.455-4.226-4.188-6.061-4.053-10.141
			c3.985-4.464,1.451-9.022,2.031-14.198c0.396-3.624,1.392-6.323,2.021-10.143c0.328-1.955-0.426-4.148,0-6.088
			c0.376-1.702,1.75-2.018,2.031-4.058c0.512-3.637-0.421-8.727,0-12.17c0.333-2.664,2.175-3.742,2.036-10.141
			c-0.131-5.454-3.235-10.557-2.036-16.233c-4.865,5.707-4.594,14.376-6.083,22.316c-1.344,7.167-3.5,14.631-4.071,22.315
			c-0.619,8.872,0.493,18.814,0,28.398c-6.185-1.469-5.952,3.501-12.152,2.025c-2.354,8.272-1.523,14.581-2.036,22.315
			c0.029-0.474-3.346,0.978-2.026,2.027c2.597,2.083,3.254,10.11,0,14.2c-5.391-0.02-11.58,0.774-14.196-2.03
			c1.214-3.608-5.953-8.423,0-10.14c0.019-4.027,5.537-2.576,4.057-8.11c-1.393-6.895,1.833-12.952,0-20.288
			c-0.792-3.143-3.863-2.166-4.057-8.113c-0.3-8.957,2.094-15.93,4.057-24.341c1.499-6.461,1.891-11.103,4.057-18.26
			c4.095-13.566,1.243-35.82-2.04-56.795c-1.697-6.413-10.769-2.517-14.192-8.115c-2.06-2.741,2.979-7.358,2.021-8.113
			c-4.478-3.593,2.746-11.373,0-22.315c-0.106-0.479-1.828-3.123-2.021-2.025c1.514-8.501,7.253-13.471,10.145-20.291
			c-9.255-1.02-11.499,3.521-18.259,0c-0.14-7.015,0.097-14.161,2.031-20.278c0.203-0.667,1.924-0.064,2.025-2.031
			c0.054-1.006,1.514-2.872,2.031-4.062c2.752-6.435,4.174-16.019,8.114-24.341c0.469-0.976,1.915,0.198,2.031-2.025
			c0.15-3.046,4.299-6.321,6.074-10.141c7.509-1.287,12.078-5.507,22.315-4.061c-3.331-10.716-7.645-24.834-4.052-34.481
			c1.77-4.753,2.04-4.802,6.073-8.119c1.073-0.871,3.017-3.468,4.071-4.052c0.745-0.416,3.549,0.619,4.053,0
			C6476.389,7103.058,6481.282,7101.637,6489.329,7102.565z"/>
		<path fill="none" stroke="#FFFFFF" stroke-width="4.9514" stroke-miterlimit="10" d="M6764.171,7120.041
			c-1.539,10.628-1.441,22.91-8.114,28.403c5.077,6.412,15.744,7.244,22.301,12.171c10.894,14.133,8.863,41.183,14.216,60.854
			c-3.579,1.837-3.356,7.466-8.113,8.113c-0.557,4.182-8.985,0.484-8.114,6.088c2.031,4.134,0.483,6.021,2.011,12.171
			c0.474,1.865,4.014,11.059,4.071,16.227c0.02,1.225,0.783,7.33,0,8.114c-2.398,2.389-3.308,1.619-4.071,6.088
			c-0.841,5.015,0.348,10.749,0,16.223c-0.643,10.86-2.534,23.171-4.047,34.486c-1.103,8.229-2.51,15.2-4.057,24.346
			c-0.213,1.291,0.319,2.785,0,4.056c-1.131,4.546-0.929,1.07,0,8.11c0.803,6.098-0.576,15.624,0,24.346
			c0.232,8.346-9.478,6.749-10.135,14.195c-1.421,11.559,3.433,16.856,2.021,28.398c-5.846,5.255-12.577-0.91-20.279,0
			c-4.4-4.326,2.055-5.013,4.052-8.113c3.472-5.391,4.932-10.576,4.057-22.311c1.774-6.514-5.266-4.2-6.078-8.112
			c1.774-30.178-6.286-50.517-6.083-79.113c-7.572-0.984,0.077,16.896-4.071,20.283c-3.395,2.787,1.257,9.494-2.021,12.173
			c-1.354,1.11-3.666,7.078-4.072,10.144c-1.456,11.498,1.277,23.147-2.011,34.488c1.518,7.604-7.756,4.419-8.114,10.138
			c-4.091,11.89,2.166,21.731-2.031,32.456c-6.412,2.166-18.708,0.429-26.362-2.032c-0.469-4.893,4.749-5.186,8.114-8.113
			c2.562-2.248,3.636-2.423,6.073-6.087c0.687-1.021-0.02-2.446,2.036-2.028c-2.863-19.546-0.324-45.896-2.036-70.997
			c-0.628-9.273-3.423-17.714-4.052-26.371c-1.19-16.37,3.675-33.97,0-48.678c-0.764-3.045-4.091-2.229-4.062-8.118
			c4.429-1.093,1.218-7.045,2.04-10.141c0.131-0.518,1.925-0.174,2.021-2.026c0.165-3.239,1.353-3.52,2.021-6.082
			c0.962-6.379-2.534-8.297-6.082-10.145c-2.06-2.669-1.993-7.484-4.053-10.146c4.352-31.497-2.296-73.961,34.486-73.023
			c-1.267-1.905,1.958-1.683,2.011-2.031c0.513-2.504-1.664-1.035-2.011-2.031c-1.451-4.12-5.106-8.124-4.052-18.258
			c0.871-8.53,7.224-14.598,10.135-20.28c4.748,1.741,8.307-2.378,12.175-2.031
			C6752.276,7106.593,6759.026,7114.688,6764.171,7120.041z"/>
		<path fill="none" stroke="#FFFFFF" stroke-width="4.9514" stroke-miterlimit="10" d="M6870.859,7169.642
			c-9.159,21.459-0.155,50.433,6.083,68.968c2.645,6.111-4.386,7.808-6.083,10.139c-2.302,3.147-1.131,7.805-6.093,8.114
			c4.874,9.868,1.141,20.612,0,30.434c-0.73,6.259,0.841,12.552,0,18.253c-1.074,7.394-4.768,13.369-6.083,20.283
			c-2.535,13.304-0.716,26.549-2.031,40.569c-0.474,5.055-0.455,8.995-2.021,16.228c-0.377,1.702-1.78,2.008-2.031,4.058
			c-1.054,8.606,1.703,17.973-2.021,26.374c-2.844,10.272,9.298,5.563,8.104,14.195c-2.128,9.371-14.83,8.162-26.368,8.112
			c2.954-6.095-3.292-10.912-4.057-16.221c-3.675-25.503,9.989-52.396,8.114-83.17c-0.687-11.245-3.462-27.067-2.026-44.629
			c-9.362,1.146-8.825,12.817-12.175,20.283c-0.542,1.216-3.632,3.065-4.057,4.058c-0.484,1.12,0.299,2.862,0,4.058
			c-0.522,2.062-2.674,4.461-4.057,8.118c-0.266,0.706,0.546,3.606,0,4.058c-2.558,2.093-1.441,7.538-2.026,16.22
			c-0.687,10.078-0.957,17.104,0,28.404c0.725,8.731,0.765,19.629,0,28.398c-0.88,10.207-6.47,18.576-4.052,28.398
			c-13.646,0.104-27.823,0.773-34.496-6.088c-1.383-6.803,3.409-7.414,8.104-8.108c-0.947-6.373,5.474-5.363,6.102-10.145
			c-0.271-57.155-1.184-103.549,14.197-146.054c-4.188-6.204-5.571-12.151-8.119-22.315c-0.924-3.684-6.958-8.292-8.109-14.195
			c-1.581-8.057,0.406-17.872,0-26.372c-0.188-3.898-1.595-6.451-2.036-10.146c-1.387-11.759,0.817-23.417,2.036-34.476
			c5.358-5.048,12.524-6.006,18.254-10.145c4.985-3.603,7.62-10.435,14.202-12.175c1.764-7.853-4.952-7.219-6.083-12.17
			c0.861-7.244-1.165-13.21,0-18.254c2.699-11.73,14.961-17.311,26.362-10.145c3.221,2.016,7.717-0.068,6.093,8.114
			c10.406-1.621,13.297,4.273,22.305,4.052c7.238,10.357,18.515,16.653,30.439,22.32c-0.919,9.854,7.582,6.75,6.083,18.258
			c-0.638,4.865-2.292,5.048-6.083,8.113c-1.345,1.074-2.882,3.231-4.062,4.053c-0.725,0.513-3.511-0.668-4.062,0
			c-0.251,0.299,0.314,1.822,0,2.025C6882.526,7163.844,6874.64,7165.57,6870.859,7169.642z M6846.507,7114.867
			c-0.589,5.691-4.536,12.393-4.051,20.289c3.345,5.677,15.381,3.607,24.336,4.053c4.241,0.217,9.153,3.423,10.149,0
			c-5.062-2.999-0.425-7.728-2.031-12.166c-0.145-0.416-4.168-3.752-6.082-6.088c-4.633-5.677-5.097-7.829-10.145-8.119
			c-5.542-0.31-7.602-4.366-12.176-4.052C6843.693,7111.462,6846.769,7112.488,6846.507,7114.867z"/>
		<path fill="none" stroke="#FFFFFF" stroke-width="4.9514" stroke-miterlimit="10" d="M6948.07,7102.149
			c-1.867,8.375,2.514,14.391,2.025,20.29c-0.711,8.752-8.04,14.39-8.113,24.341c2.712,4.066,9.008,4.521,14.201,6.087
			c-0.086,3.468,1.514,5.252,4.073,6.088c1.115,1.17,1.093,2.617,2.015,4.058c-0.604-0.952,6.03,16.286,2.031,20.284
			c-0.14,0.139-2.006-0.15-2.031,0c-0.266,1.475,0.991,7.132,0,8.113c-0.169,0.166-1.973-0.193-2.015,0
			c-0.509,1.781,0.714,4.391,0,6.084c-0.389,0.88-1.819-0.049-2.042,2.03c-0.555,5.156-0.29,11.043,0,16.228
			c0.59,10.817,0.841,23.161,4.057,32.455c0.266,0.745,1.93-0.006,2.031,2.026c0.122,2.334,0.086,3.631,2.026,4.056
			c-1.702,11.993,1.223,22.892,0,34.485c-0.774,7.341-4.662,14.313-6.073,22.312c-1.354,7.573-0.649,16.799-2.042,24.346
			c0.039-0.226-1.779,1.05-2.031,2.027c-0.323,1.344,0.973,7.323,0,8.123c-0.159,0.125-1.993-0.166-2.02,0
			c-1.606,6.653-1.181,14.277-4.067,22.311c-1.03,2.89-3.641,5.506-4.057,8.112c-1.247,7.92,0.934,16.363,0,24.341
			c-0.668,5.774-2.542,10.176-4.057,16.229c1.988,4.584,9.782,3.927,14.201,6.082c1.123,0.542,5.301-0.89,6.088,0
			c0.667,0.755-0.692,3.326,0,4.062c1.601,1.723,4.85,1.963,4.058,6.078c-12.843,4.075-32.659,1.155-48.683,2.035
			c-7.209,3.147-1.228-6.895-6.093-6.093c-0.628-2.747-5.077-1.672-8.104-2.021c1.257-41.839,1.015-92.423-2.021-135.911
			c-5.116-7.07-20.879-3.469-26.381-10.141c1.015-8.453,7.088-11.838,8.124-20.29c1.213-3.5,9.603,0.16,10.135-4.057
			c6.373-18.268-14.081-26.754-16.218-42.6c-0.823-5.961,2.736-12.823,4.052-20.285c1.131-6.392,0.715-11.895,2.031-18.253
			c3.2-15.667,7.746-20.812,20.279-28.403c4.705-2.843,14.235-2.925,16.228-10.135c1.76-7.853-4.961-7.224-6.093-12.18
			c-0.986-9.105,1.035-15.198,2.031-22.315C6924.222,7093.823,6940.604,7091.986,6948.07,7102.149z"/>
		<path fill="none" stroke="#FFFFFF" stroke-width="4.9514" stroke-miterlimit="10" d="M7097.115,7141.123
			c2.736,1.992,4.052,5.416,6.083,8.109c2.892,1.199,5.261,0.566,8.105,2.031c1.498,0.769,2.8,3.148,4.061,4.058
			c1.935,1.392,4.363,2.417,6.094,4.062c0.628,0.594,3.723,3.51,4.057,4.051c0.439,0.746-0.643,3.53,0,4.058
			c1.446,1.184,2.451,4.657,4.062,12.17c1.609,7.505,1.706,15.619,4.056,26.372c0.367,1.712,1.818,1.998,2.026,4.062
			c1.208,12.113-0.9,21.837-2.026,26.363c-0.314,1.194,0.474,2.938,0,4.062c-0.59,1.363-3.447,2.925-4.056,4.057
			c-2.114,3.912-3.053,8.099-6.089,10.141c3.163,12.412-0.956,21.295-6.082,30.433c1.266,17.504-3.521,28.935-2.042,46.651
			c1.945,7.355-8.742,2.065-10.145,6.085c0.494,6.344-1.537,14.68,2.032,18.256c2.079,2.072-1.837,7.1-2.032,8.115
			c-1.431,8.183-2.562,17.466-6.077,26.373c-0.242,0.6-1.625,0.406-2.026,2.025c-1.044,4.178-2.853,7.354-4.062,12.17
			c-0.638,2.544,1.47,9.715,4.062,12.171c0.647,0.624,3.501-0.682,4.058,0c0.599,0.724,1.31,3.549,2.025,4.058
			c2.834,1.992,11.586,0.802,12.166,8.117c-8.717,3.283-29.814,3.283-38.536,0c-2.617-6.391,3.422-14.606,4.06-24.346
			c0.707-10.724-2.935-25.434-2.03-36.511c0.367-4.464,1.358-8.882,2.03-12.173c0.063-0.309,1.935-0.333,2.032-2.03
			c0.232-4.526,0.106-13.621-2.032-18.258c-1.527-3.315-4.574-3.955-8.117-6.083c-1.61-0.967,0.957-3.632-2.03-4.053
			c0.222,0.03-2.704,3.126-4.048,2.027c-5.377-0.682-4.962,7.161-6.093,10.141c-2.293,6.058-5.937,11.9-4.052,22.318
			c0.348,1.973,2.089,3.018,2.021,6.083c-0.135,7.688-4.758,15.17-6.083,22.311c-0.726,3.927,0.59,8.221,0,12.17
			c-0.338,2.299-2.312,4.155-2.021,8.12c0.59,8.8,8.221,15.87,6.083,24.336c-5.024,1.765-15.724,3.96-20.285,0
			c1.823-15.355,3.41-27.684,0-42.594c-0.855-3.729-3.583-8.032-4.056-12.175c-2.04-17.987,3.51-32.013,4.056-48.685
			c1.451-5.506-9.569,1.456-8.119-4.053c1.025-12.175-1.392-23.664,0-34.486c0.533-4.042,2.931-8.285,4.063-12.175
			c0.367-1.246-0.32-2.795,0-4.056c0.445-1.784,1.374-3.479,2.025-6.079c0.343-1.382,1.987-1.837,2.031-2.035
			c1.708-8.544,0.653-17.436,2.031-26.367c1.059-6.895,1.867-13.075,4.048-20.289c0.502-1.658,1.827-2.012,2.03-4.053
			c0.396-3.771-2.05-8.413-2.03-12.165c0.019-3.255,1.576-6.078,2.03-10.154c0.832-7.263-0.745-16.885,0-24.337
			c-0.005,0.093,1.953-0.643,2.03-2.03c0.108-2.017-0.085-4.062,0-6.088c5.204-0.194,2.892-7.916,8.115-8.109
			c0.329-2.379,3.705-1.717,6.083-2.031c-0.329-2.354,0.454-3.612,2.03-4.057c3.259-7.983-8.762-0.706-8.113-6.083
			c-0.354-5.734,1.75-13.916-4.053-14.201c0.871-3.863,4.361-5.102,4.053-10.14c-1.17-4.922-13.123,0.953-12.175-6.092
			c-1.867-7.949,10.704-1.46,12.175-6.088c3.569-1.823,6.286-4.53,8.113-8.109c7.438,0,14.875,0,22.321,0
			c-0.401,4.236,7.832,5.048,8.104,10.145c0.131,2.457,1.558,0.88,2.031,2.031c0.686,1.707,0.744,12.993,2.03,16.228
			c0.291,0.715-0.562,3.598,0,4.052C7099.466,7130.862,7099.19,7136.123,7097.115,7141.123z"/>
		<path fill="none" stroke="#FFFFFF" stroke-width="4.9514" stroke-miterlimit="10" d="M7053.955,7262.833
			c-4.922,3.192-8.655,7.567-18.248,6.084c-0.175,14.868,0.995,28.457-2.036,40.574c-0.406,1.637-1.881,1.491-2.021,2.025
			c-1.078,3.771-0.981,8.394-2.035,12.171c-0.049,0.165-1.703,0.754-2.021,2.029c-0.881,3.472-0.944,5.411-2.042,10.136
			c-0.958,4.188-0.967,9.283-2.015,12.175c-0.286,0.785-1.919-0.037-2.037,2.033c-0.145,2.925-3.853,4.381-4.05,8.112
			c-0.098,1.659-2.278,2.008-2.032,4.053c0.357,21.99,0.464,43.744-6.083,58.827c1.591,7.882,19.834-0.9,18.259,10.146
			c-16.576,8.19-42.33,2.01-62.888,2.029c2.94-10.608,0.753-18.383,2.04-26.373c0.754-4.817,2.282-9.787,4.047-14.195
			c0.285-0.727-0.556-3.597,0-4.062c2.049-1.682,4.104-11.92,6.078-18.258c2.436-7.805,5.212-15.479,8.123-26.361
			c1.634-6.133,2.146-15.749,0-24.349c-1.306-5.213-0.25-9.731-2.03-14.2c-0.291-0.717,0.56-3.597,0-4.062
			c-2.341-1.904,0-6.083-2.031-8.112c-0.736-0.728-3.066-4.349-4.062-8.11c-0.93-3.514-1.596-5.652-2.031-8.113
			c-0.164-1-0.629-7.48,0-8.113c0.949-0.943,1.721-1.62,0-8.114c-1.297-4.917-2.302-16.145-4.046-24.337
			c-0.083-0.354-1.939-0.31-2.031-2.04c-0.023-0.536,0.198-1.527,0-2.021c-1.573-3.931-2.282-10.898-4.056-18.253
			c-1.568-6.542-2.023-24.384,0-32.459c2.319-9.274,8.2-13.637,18.258-18.259c-4-5.826,0.406-14.786,2.03-22.31
			c0.802-3.757,0.928-8.229,2.021-12.175c1.025-3.685,3.738-6.499,4.052-10.14c7.863-1.939,10.165-4.908,16.243-4.062
			c2.292,0.333,9.868,3.128,10.14,8.118c0.115,2.456,3.644,2.736,4.05,4.062c3.433,11.083-3.423,25.918-6.082,34.481
			c0.373,1.726-0.803,1.915-2.031,2.025c0.812,3.27,1.895-0.609,4.063,0c2.189,0.634,3.567,7.659,10.144,8.114
			c2.698,12.882,6.687,23.723,12.165,34.486c1.636,3.201,2.999,7.931,6.093,10.145c-0.377,8.143-0.222,15.421,2.021,22.311
			c0.232,0.691,1.925,0.039,2.02,2.031C7050.266,7247.559,7051.504,7255.116,7053.955,7262.833z"/>
	</g>
	<g>
		
			<line fill="none" stroke="#FFFFFF" stroke-width="4.9514" stroke-miterlimit="10" stroke-dasharray="24.7571,24.7571" x1="6882.26" y1="6659.5" x2="6882.26" y2="7738.012"/>
		
			<line fill="none" stroke="#FFFFFF" stroke-width="4.9514" stroke-miterlimit="10" stroke-dasharray="24.7571,24.7571" x1="7521.379" y1="6661.57" x2="7521.379" y2="7736.628"/>
		
			<line fill="none" stroke="#FFFFFF" stroke-width="4.9514" stroke-miterlimit="10" stroke-dasharray="24.7571,24.7571" x1="6243.141" y1="7019.005" x2="8160.5" y2="7019.005"/>
	</g>
	
		<rect x="6243.141" y="6660.984" fill="none" stroke="#FFFFFF" stroke-width="4.9514" stroke-miterlimit="10" width="1917.359" height="1078.515"/>
	<g>
		
			<line fill="none" stroke="#FFFFFF" stroke-width="4.9514" stroke-miterlimit="10" x1="7521.379" y1="7377.582" x2="6882.26" y2="7738.012"/>
		
			<line fill="none" stroke="#FFFFFF" stroke-width="4.9514" stroke-miterlimit="10" x1="7521.379" y1="7377.582" x2="6243.141" y2="7739.5"/>
		
			<line fill="none" stroke="#FFFFFF" stroke-width="4.9514" stroke-miterlimit="10" x1="7211.143" y1="7736.628" x2="7521.379" y2="7377.582"/>
	</g>
	
		<line fill="none" stroke="#FFFFFF" stroke-width="10" stroke-miterlimit="10" x1="6243.141" y1="7378.172" x2="6355.113" y2="7378.172"/>
	
		<line fill="none" stroke="#FFFFFF" stroke-width="11.7246" stroke-miterlimit="10" x1="6414.71" y1="7378.172" x2="6436.599" y2="7378.172"/>
	
		<line fill="none" stroke="#FFFFFF" stroke-width="10" stroke-miterlimit="10" x1="6574.495" y1="7378.172" x2="6612.669" y2="7378.172"/>
	
		<line fill="none" stroke="#FFFFFF" stroke-width="10" stroke-miterlimit="10" x1="6663.495" y1="7378.172" x2="6701.669" y2="7378.172"/>
	
		<line fill="none" stroke="#FFFFFF" stroke-width="10" stroke-miterlimit="10" x1="6727.337" y1="7378.172" x2="6743.998" y2="7378.172"/>
	
		<line fill="none" stroke="#FFFFFF" stroke-width="10.8405" stroke-miterlimit="10" x1="6810.67" y1="7378.172" x2="6830.25" y2="7378.172"/>
	
		<line fill="none" stroke="#FFFFFF" stroke-width="10" stroke-miterlimit="10" x1="6855.419" y1="7378.172" x2="6903.491" y2="7378.172"/>
	
		<line fill="none" stroke="#FFFFFF" stroke-width="10" stroke-miterlimit="10" x1="6946.691" y1="7378.172" x2="6974.605" y2="7378.172"/>
	
		<line fill="none" stroke="#FFFFFF" stroke-width="10" stroke-miterlimit="10" x1="7015.67" y1="7378.172" x2="7032.332" y2="7378.172"/>
	
		<line fill="none" stroke="#FFFFFF" stroke-width="10" stroke-miterlimit="10" x1="7055.781" y1="7378.172" x2="7077.167" y2="7378.172"/>
	
		<line fill="none" stroke="#FFFFFF" stroke-width="10" stroke-miterlimit="10" x1="6771.5" y1="7377.582" x2="6789.903" y2="7377.582"/>
	
		<line fill="none" stroke="#FFFFFF" stroke-width="6.7" stroke-miterlimit="10" x1="6629.684" y1="7377.582" x2="6646.82" y2="7377.582"/>
	
		<line fill="none" stroke="#FFFFFF" stroke-width="10" stroke-miterlimit="10" x1="6533.543" y1="7378.172" x2="6553.611" y2="7378.172"/>
	
		<line fill="none" stroke="#FFFFFF" stroke-width="10" stroke-miterlimit="10" x1="6504.432" y1="7378.172" x2="6514.192" y2="7378.172"/>
	
		<line fill="none" stroke="#FFFFFF" stroke-width="10" stroke-miterlimit="10" x1="6467.111" y1="7378.172" x2="6473.897" y2="7378.172"/>
</g>
</svg>
