<?xml version="1.0" encoding="utf-8"?>
<!-- Generator: Adobe Illustrator 15.0.0, SVG Export Plug-In . SVG Version: 6.00 Build 0)  -->
<!DOCTYPE svg PUBLIC "-//W3C//DTD SVG 1.1//EN" "http://www.w3.org/Graphics/SVG/1.1/DTD/svg11.dtd">
<svg version="1.1" id="Layer_1" xmlns="http://www.w3.org/2000/svg" xmlns:xlink="http://www.w3.org/1999/xlink" x="0px" y="0px"
	 width="480px" height="800px" viewBox="0 0 480 800" enable-background="new 0 0 480 800" xml:space="preserve">
<pattern  x="0.5" y="800.5" width="70" height="70" patternUnits="userSpaceOnUse" id="SVGID_4_" viewBox="0 -70 70 70" overflow="visible">
	<g>
		<polygon fill="none" points="0,0 70,0 70,-70 0,-70 		"/>
		<g>
			<polygon fill="none" points="0,-70 70,-70 70,0 0,0 			"/>
			
				<image overflow="visible" enable-background="new    " width="70" height="70" xlink:href="EC7EA2B6.jpg"  transform="matrix(1 0 0 -1 0 0)">
			</image>
		</g>
	</g>
</pattern>
<rect x="0.08" y="0.06" fill="#E9EBE6" width="480" height="800"/>
<pattern  id="SVGID_1_" xlink:href="#SVGID_4_" patternTransform="matrix(1.5 0 0 -1.5 6558.5166 -25881.2285)">
</pattern>
<rect x="-0.082" fill="url(#SVGID_1_)" width="480.001" height="64.348"/>
<path id="picture-box-icon_75_" fill="#FFFFFF" d="M51.789,41.999l-2.726,2.544h-6.989l-2.736-2.544H24.371h-0.006l1.543,9.167
	l39.128-0.002l1.644-9.165h-0.006H51.789z M62.835,21.345H28.207l-0.41-2.224h35.449L62.835,21.345z M60.458,17.493H30.685
	l-0.41-1.754H60.87L60.458,17.493z M26.834,39.652L25.451,23.09h40.055l-1.422,16.562h-3.512l0.961-13.494H29.322l1.062,13.494
	H26.834z"/>
<path id="user-icon_30_" fill="#FFFFFF" d="M447.323,40.085c-4.645-1.071-8.967-2.009-6.873-5.956
	c6.371-12.013,1.689-18.437-5.039-18.437c-6.86,0-11.43,6.671-5.041,18.437c2.156,3.971-2.327,4.908-6.87,5.956
	c-4.643,1.07-4.285,3.518-4.285,7.958h32.393C451.606,43.603,451.964,41.155,447.323,40.085z"/>
<path id="picture-add-icon_33_" fill="#FFFFFF" d="M392.292,32.852c0,8.82-7.148,15.969-15.97,15.969
	c-8.818,0-15.969-7.148-15.969-15.969c0-8.818,7.149-15.969,15.969-15.969C385.144,16.883,392.292,24.034,392.292,32.852z
	 M386.138,30.415h-6.912v-6.911h-5.34v6.911h-6.912v5.338h6.912v6.914h5.34v-6.914h6.912V30.415z"/>
<g>
	<polygon fill="#908F86" points="480.08,64.449 445.922,64.449 429.176,64.449 297.567,64.449 297.567,126.449 429.176,126.449 
		445.922,126.449 480.08,126.449 	"/>
</g>
<g>
	<text transform="matrix(1 0 0 1 365.5273 103.7988)" fill="#FFFFFF" font-family="'Roboto-Medium'" font-size="18">PUBLISH</text>
</g>
<g>
	<polygon fill="#908F86" points="309.257,64.45 307.989,64.45 291.438,64.45 147.642,64.45 147.642,126.45 291.438,126.45 
		307.989,126.45 309.257,126.45 328.664,95.451 	"/>
</g>
<g>
	<text transform="matrix(1 0 0 1 211.3203 104.2939)" fill="#FFFFFF" font-family="'Roboto-Medium'" font-size="18">ORDER</text>
</g>
<g>
	<polygon fill="#DDD9CF" points="148.798,64.449 147.515,64.449 130.742,64.449 0.08,64.449 0.08,126.449 130.742,126.449 
		147.515,126.449 148.798,126.449 168.464,95.449 	"/>
</g>
<text transform="matrix(1 0 0 1 34.2842 103.7988)" fill="#555452" font-family="'Roboto-Medium'" font-size="18">ADD CLIPS</text>
<polygon fill="#EAEBE5" points="309.58,64.451 330.097,95.443 309.58,126.451 312.011,126.451 332.53,95.443 312.011,64.451 "/>
<g>
	
		<image overflow="visible" opacity="0.4" enable-background="new    " width="150" height="313" xlink:href="EC7EA2BA.png"  transform="matrix(0.2336 0 0 0.2369 139.8711 58.4502)">
	</image>
	<g>
		<polygon fill="#EAEBE5" points="147.871,64.451 168.388,95.443 147.871,126.451 150.303,126.451 170.822,95.443 150.303,64.451 		
			"/>
	</g>
</g>
<g>
	<text transform="matrix(1 0 0 1 86.9316 39.1768)" fill="#FFFFFF" font-family="'Roboto-Medium'" font-size="18">STORY</text>
</g>
<g>
	<rect x="67.158" y="151.976" fill="#FFFFFF" width="346.869" height="190.739"/>
	<path fill="#B3CC2F" d="M409.027,156.976v180.739H72.158V156.976H409.027 M419.027,146.976H62.158v200.739h356.869V146.976
		L419.027,146.976z"/>
</g>
<path fill="#B3CC2F" d="M267.135,295.022c-15.627,12.347-35,19.194-55.355,19.194c-20.579,0-40.134-7.014-55.834-19.602
	c-41.38,15.202-59.863,28.087-59.863,52.33h230.227C326.308,322.92,307.688,310.399,267.135,295.022z"/>
<path fill="#B3CC2F" d="M211.779,302.955c37.044,0,67.067-30.028,67.067-67.049c0-37.042-30.023-67.055-67.067-67.055
	c-37.023,0-67.054,30.013-67.054,67.055C144.726,272.927,174.755,302.955,211.779,302.955z M259.486,240.6
	c0,26.653-21.624,48.265-48.289,48.265c-26.666,0-48.278-21.612-48.278-48.265H259.486z"/>
<rect x="25.082" y="733.69" fill="#FFFFFF" width="432" height="56.755"/>
<g>
	<text transform="matrix(1 0 0 1 42.6592 770.4258)" font-family="'Roboto-Medium'" font-size="18">NOTES</text>
</g>
<path id="edit-8-icon_2_" fill="#010101" d="M428.897,770.921l6.553-1.481l-4.952-4.947L428.897,770.921z M443.342,751.509
	l-11.444,11.438l5.104,5.1l11.443-11.438L443.342,751.509z"/>
<g>
	<line fill="none" x1="416.465" y1="732.379" x2="416.465" y2="792.053"/>
	<line fill="none" x1="416.465" y1="732.379" x2="416.465" y2="792.053"/>
	<line fill="none" stroke="#AEAC9D" stroke-miterlimit="10" x1="416.465" y1="732.379" x2="416.465" y2="792.053"/>
</g>
<rect x="24.619" y="647.325" fill="none" stroke="#000000" stroke-miterlimit="10" width="430.431" height="65.542"/>
<g>
	<path d="M44.184,696.256c-4.4,0-6.2-3.118-4-6.928l12.735-22.059c2.199-3.811,5.8-3.811,8,0l12.732,22.059
		c2.2,3.811,0.4,6.928-4,6.928H44.184z"/>
</g>
<path fill="#FFFFFF" d="M58.613,686.227h-3.39v-12.726h3.39V686.227z M58.613,692.367h-3.39v-3.603h3.39V692.367z"/>
<text transform="matrix(1 0 0 1 91.4043 673.4824)" font-family="'Roboto-Regular'" font-size="20">Be careful not to reveal any personal </text>
<text transform="matrix(1 0 0 1 91.4043 697.4824)" font-family="'Roboto-Regular'" font-size="20">information.</text>
<g>
	<g>
		<defs>
			<rect id="SVGID_2_" x="0.08" y="160.443" width="44.499" height="173.8"/>
		</defs>
		<clipPath id="SVGID_3_">
			<use xlink:href="#SVGID_2_"  overflow="visible"/>
		</clipPath>
		<g clip-path="url(#SVGID_3_)">
			<rect x="-259.398" y="165.443" fill="#FFFFFF" width="298.979" height="163.8"/>
			<path fill="#F37328" d="M34.58,170.443v153.8h-288.979v-153.8H34.58 M44.58,160.443h-308.979v173.8H44.58V160.443L44.58,160.443z
				"/>
		</g>
	</g>
</g>
<g>
	<g>
		<defs>
			<rect id="SVGID_5_" x="436.571" y="160.443" width="43.511" height="173.8"/>
		</defs>
		<clipPath id="SVGID_6_">
			<use xlink:href="#SVGID_5_"  overflow="visible"/>
		</clipPath>
		<g clip-path="url(#SVGID_6_)">
			<rect x="441.571" y="165.443" fill="#FFFFFF" width="298.979" height="163.8"/>
			<path fill="#4C96D1" d="M735.55,170.443v153.8H446.571v-153.8H735.55 M745.55,160.443H436.571v173.8h308.979L745.55,160.443
				L745.55,160.443z"/>
		</g>
	</g>
</g>
<rect x="64.529" y="368.049" fill="#F37328" width="70.56" height="14.957"/>
<rect x="135.238" y="368.049" fill="#B3CC2F" width="70.559" height="14.957"/>
<rect x="205.796" y="368.049" fill="#4C96D1" width="70.557" height="14.956"/>
<rect x="276.353" y="368.049" fill="#40646D" width="70.554" height="14.957"/>
<rect x="346.906" y="368.049" fill="#6B2842" width="70.561" height="14.957"/>
<text transform="matrix(1 0 0 1 24.1738 459.9717)" font-family="'Roboto-Medium'" font-size="28">Depict a character’s emotion.</text>
<text transform="matrix(1 0 0 1 24.1729 490.209)" font-family="'Roboto-Regular'" font-size="20">Length: 10 seconds</text>
<text transform="matrix(1 0 0 1 24.1729 423.8184)" font-family="'Roboto-Medium'" font-size="18">CLOSE</text>
<rect x="24.552" y="512.619" fill="none" width="432.735" height="207.393"/>
<text transform="matrix(1 0 0 1 24.5518 527.8535)" font-family="'Roboto-Regular'" font-size="20">Show the audience who your character is, build </text>
<text transform="matrix(1 0 0 1 24.5518 551.8535)" font-family="'Roboto-Regular'" font-size="20">a connection between the viewer and subject. </text>
<text transform="matrix(1 0 0 1 24.5518 594.8535)" font-family="'Roboto-Regular'" font-size="20" letter-spacing="58"> </text>
<text transform="matrix(1 0 0 1 87.5518 594.8535)" font-family="'Roboto-Regular'" font-size="20">Use the eye-line to frame your shot </text>
<text transform="matrix(1 0 0 1 24.5518 618.8535)" font-family="'Roboto-Regular'" font-size="20" letter-spacing="58"> </text>
<text transform="matrix(1 0 0 1 87.5518 618.8535)" font-family="'Roboto-Regular'" font-size="20">properly.</text>
<path d="M46.37,596.475c1.203-0.527,0.678-2.725,0.678-4.229c0-2.079-0.213-4.104,1.521-4.4c4.048-0.69,1.315,6.187,2.878,8.8
	c2.115-1.641-1.307-8.961,2.706-8.8c3.426,0.141,0.789,6.333,2.368,8.8c1.76-1.458-0.332-6.027,1.354-7.274
	c0.45-0.333,1.865-0.498,2.538,0c1.376,1.018,0.703,9.069,0.677,11.505c-0.049,4.763-0.511,8.339-1.184,10.66
	c-4.496-0.704-9.182,0.951-13.366,0c-1.314-0.298-3.688-2.512-4.737-3.384c-1.392-1.153-3.452-2.811-3.726-4.23
	c-0.592-3.091,2.893-5.279,3.295-8.291c0.771,1.993-1.496,6.269,0.09,7.446c0.912-1.05,0.509-3.34,0.509-5.246
	c0-3.519,0-7.563,0-11.337c0-2.849-0.671-6.843,1.689-7.106c3.261-0.362,2.2,5.475,2.2,8.969c0,1.492,0,3.019,0,4.398
	C45.862,594.067,45.451,595.715,46.37,596.475z"/>
<path d="M60.923,612.718c-0.035,0.675-0.063,2.058,0,2.876c-5.98,0-11.958,0-17.938,0c0.111-0.904-0.222-2.253,0.169-2.876
	C49.077,612.718,55,612.718,60.923,612.718z"/>
<polygon fill="#555452" points="36.443,379.81 36.443,384.519 28.348,376.437 36.445,368.353 36.445,373.23 50.098,373.23 
	50.098,379.81 "/>
<polygon fill="#555452" points="443.716,373.062 443.716,368.353 451.812,376.435 443.714,384.519 443.714,379.642 430.062,379.642 
	430.062,373.062 "/>
</svg>
